    28
 1 LA 0.000268822 -0.0205675 -6.24429e-05 284
 2 O -1.89181 0.870875 1.56649 22 10 11
 3 O 0.00425141 -1.34131 2.27159 22 20 21
 4 O 1.88142 0.888407 1.56898 22 24 25
 5 O 1.89504 -1.81931 -0.0031105 22 18 19
 6 O 1.88503 0.895094 -1.56093 22 12 13
 7 O -1.89036 0.879306 -1.56371 22 14 15
 8 O -0.0128045 2.90752 0.00650729 22 22 23
 9 O -1.87963 -1.83626 -0.00619825 22 16 17
 10 H -1.94823 0.745745 2.52721 23 2
 11 H -2.69834 1.35375 1.32571 23 2
 12 H 2.6867 1.38477 -1.31771 23 6
 13 H 1.94341 0.773867 -2.52203 23 6
 14 H -1.9506 1.77396 -1.9349 23 7
 15 H -2.69245 0.42451 -1.86614 23 7
 16 H -1.93307 -2.60599 -0.59482 23 9
 17 H -2.6843 -1.87427 0.534802 23 9
 18 H 2.70005 -1.84814 -0.544156 23 5
 19 H 1.95468 -2.59131 0.581921 23 5
 20 H -0.529761 -2.11795 2.50187 23 3
 21 H 0.538824 -1.15716 3.06007 23 3
 22 H 0.521786 3.50044 -0.544894 23 8
 23 H -0.552606 3.49313 0.560642 23 8
 24 H 1.93387 1.78147 1.94516 23 4
 25 H 2.68703 0.438687 1.86959 23 4
 26 O 0.00764397 -1.32712 -2.27935 22 27 28
 27 H 0.546924 -2.09852 -2.51494 23 26
 28 H -0.529444 -1.14224 -3.06595 23 26
