    28
 1 LA 6.82639e-05 0.000191033 -0.0270505 284
 2 O -1.56271 -1.88742 -0.934426 22 10 11
 3 O -2.27706 -0.00242152 1.28423 22 20 21
 4 O -1.56523 1.88585 -0.933149 22 24 25
 5 O -0.00441122 1.88596 1.78112 22 18 19
 6 O 1.56468 1.8895 -0.9268 22 12 13
 7 O 1.56749 -1.88592 -0.929831 22 14 15
 8 O 0.00433608 0.00135628 -2.25517 22 22 23
 9 O -0.00130231 -1.88874 1.77926 22 16 17
 10 H -2.52395 -1.94447 -0.813576 23 2
 11 H -1.31991 -2.69153 -1.42031 23 2
 12 H 1.32349 2.6936 -1.41348 23 6
 13 H 2.52527 1.94728 -0.801287 23 6
 14 H 1.9424 -1.94169 -1.82322 23 7
 15 H 1.86804 -2.69027 -0.477787 23 7
 16 H 0.584114 -1.94602 2.55115 23 9
 17 H -0.542436 -2.69359 1.811 23 9
 18 H 0.536489 2.69083 1.81621 23 5
 19 H -0.59265 1.94175 2.55097 23 5
 20 H -2.51055 -0.540302 2.05724 23 3
 21 H -3.06478 0.533059 1.09947 23 3
 22 H 0.558186 0.538899 -2.84312 23 8
 23 H -0.547344 -0.535519 -2.84577 23 8
 24 H -1.93769 1.94275 -1.8275 23 4
 25 H -1.86772 2.6892 -0.480672 23 4
 26 O 2.27391 0.00105783 1.28899 22 27 28
 27 H 2.50627 0.536485 2.06404 23 26
 28 H 3.06127 -0.535099 1.10471 23 26
