 argument  1 = /home/iga/Water/H2O-opt-gradient.nw
 argument  2 = -p4pg
 argument  3 = /scratch/iga/PI11285
 argument  4 = -p4wd
 argument  5 = /scratch/iga



============================== echo of input deck ==============================
echo

title "H2O-opt-gradient"

permanent_dir  /home/iga/Water

start H2O-opt-gradient

charge 0

geometry
zmatrix
O
H     1    B1
H     1    B2    2    A1
variables
B1    0.96487
B2    0.96487
A1    104.74375
end
end

BASIS SPHERICAL  #nosegment
oxygen library aug-cc-pvdz
hydrogen library aug-cc-pvdz
END

set int:acc_std 1D-16
dft
mulliken
mult 1
iterations 800
grid xfine
xc b3lyp
tolerances tight accCoul 12
decomp
end
task dft gradient
================================================================================


                                         
                                         


              Northwest Computational Chemistry Package (NWChem) 5.1
              ------------------------------------------------------


                    Environmental Molecular Sciences Laboratory
                       Pacific Northwest National Laboratory
                                Richland, WA 99352

                                         
                                         


                  COPYRIGHT (C) 1994, 1995, 1996, 1997, 1998, 1999
                   2000, 2001, 2002, 2003, 2004, 2005, 2006, 2007
                        Pacific Northwest National Laboratory,
                             Battelle Memorial Institute.

                            >>> All Rights Reserved <<<


                                    DISCLAIMER
                                    ----------

            This material was prepared as an account of work sponsored
            by an agency of the United States Government.  Neither the
            United States Government nor the United States Department
            of Energy, nor Battelle, nor any of their employees, MAKES
            ANY WARRANTY, EXPRESS OR IMPLIED, OR ASSUMES ANY LEGAL
            LIABILITY OR RESPONSIBILITY FOR THE ACCURACY, COMPLETENESS,
            OR USEFULNESS OF ANY INFORMATION, APPARATUS, PRODUCT,
            SOFTWARE, OR PROCESS DISCLOSED, OR REPRESENTS THAT ITS USE
            WOULD NOT INFRINGE PRIVATELY OWNED RIGHTS.


                                    LIMITED USE
                                    -----------

            This software (including any documentation) is being made
            available to you for your internal use only, solely for use
            in performance of work directly for the U.S. Federal
            Government or work under contracts with the U.S. Department
            of Energy or other U.S. Federal Government agencies.  This
            software is a version which has not yet been evaluated and
            cleared for commercialization.  Adherence to this notice
            may be necessary for the author, Battelle Memorial
            Institute, to successfully assert copyright in and
            commercialize this software. This software is not intended
            for duplication or distribution to third parties without
            the permission of the Manager of Software Products at
            Pacific Northwest National Laboratory, Richland,
            Washington, 99352.


                                  ACKNOWLEDGMENT
                                  --------------

            This software and its documentation were produced with
            Government support under Contract Number DE-AC05-76RL01830
            awarded by the United States Department of Energy.  The
            Government retains a paid-up non-exclusive, irrevocable
            worldwide license to reproduce, prepare derivative works,
            perform publicly and display publicly by or for the
            Government, including the right to distribute to other
            Government contractors.


           Job information
           ---------------

    hostname      = c0-9
    program       = /home/share/nwchem-5.1/bin/LINUX64/nwchem
    date          = Fri Mar 11 23:58:03 2011

    compiled      = Thu_Mar_25_22:33:36_2010
    source        = /home/share/nwchem-5.1
    nwchem branch = 5.1
    input         = /home/iga/Water/H2O-opt-gradient.nw
    prefix        = H2O-opt-gradient.
    data base     = /home/iga/Water/H2O-opt-gradient.db
    status        = startup
    nproc         =    1
    time left     =     -1s



           Memory information
           ------------------

    heap      =   13107201 doubles =    100.0 Mbytes
    stack     =   13107201 doubles =    100.0 Mbytes
    global    =   26214400 doubles =    200.0 Mbytes (distinct from heap & stack)
    total     =   52428802 doubles =    400.0 Mbytes
    verify    = yes
    hardfail  = no 


           Directory information
           ---------------------

  0 permanent = /home/iga/Water
  0 scratch   = .




                                NWChem Input Module
                                -------------------


                                 H2O-opt-gradient
                                 ----------------

 Scaling coordinates for geometry "geometry" by  1.889725989
 (inverse scale =  0.529177249)

 C2V symmetry detected


                             Geometry "geometry" -> ""
                             -------------------------

 Output coordinates in angstroms (scale by  1.889725989 to convert to a.u.)

  No.       Tag          Charge          X              Y              Z
 ---- ---------------- ---------- -------------- -------------- --------------
    1 O                    8.0000     0.00000000     0.00000000     0.11781719
    2 H                    1.0000     0.76416743     0.00000000    -0.47126876
    3 H                    1.0000    -0.76416743     0.00000000    -0.47126876

      Atomic Mass 
      ----------- 

      O                 15.994910
      H                  1.007825


 Effective nuclear repulsion energy (a.u.)       9.1213497465

            Nuclear Dipole moment (a.u.) 
            ----------------------------
        X                 Y               Z
 ---------------- ---------------- ----------------
     0.0000000000     0.0000000000     0.0000000000

      Symmetry information
      --------------------

 Group name             C2v       
 Group number             16
 Group order               4
 No. of unique centers     2

      Symmetry unique atoms

     1    2



                                Z-matrix (user)
                                -------- 

 Units are Angstrom for bonds and degrees for angles

      Type          Name      I     J     K     L     M      Value
      ----------- --------  ----- ----- ----- ----- ----- ----------
    1 Stretch      B1          2     1                       0.96487
    2 Stretch      B2          3     1                       0.96487
    3 Bend         A1          3     1     2               104.74375


            XYZ format geometry
            -------------------
     3
 geometry
 O                     0.00000000     0.00000000     0.11781719
 H                     0.76416743     0.00000000    -0.47126876
 H                    -0.76416743     0.00000000    -0.47126876

 ==============================================================================
                                internuclear distances
 ------------------------------------------------------------------------------
       center one      |      center two      | atomic units |  angstroms
 ------------------------------------------------------------------------------
    2 H                |   1 O                |     1.82334  |     0.96487
    3 H                |   1 O                |     1.82334  |     0.96487
 ------------------------------------------------------------------------------
                         number of included internuclear distances:          2
 ==============================================================================



 ==============================================================================
                                 internuclear angles
 ------------------------------------------------------------------------------
        center 1       |       center 2       |       center 3       |  degrees
 ------------------------------------------------------------------------------
    2 H                |   1 O                |   3 H                |   104.74
 ------------------------------------------------------------------------------
                            number of included internuclear angles:          1
 ==============================================================================



                      Basis "ao basis" -> "" (spherical)
                      -----
  oxygen (Oxygen)
  ---------------
            Exponent  Coefficients 
       -------------- ---------------------------------------------------------
  1 S  1.17200000E+04  0.000710
  1 S  1.75900000E+03  0.005470
  1 S  4.00800000E+02  0.027837
  1 S  1.13700000E+02  0.104800
  1 S  3.70300000E+01  0.283062
  1 S  1.32700000E+01  0.448719
  1 S  5.02500000E+00  0.270952
  1 S  1.01300000E+00  0.015458

  2 S  1.17200000E+04 -0.000160
  2 S  1.75900000E+03 -0.001263
  2 S  4.00800000E+02 -0.006267
  2 S  1.13700000E+02 -0.025716
  2 S  3.70300000E+01 -0.070924
  2 S  1.32700000E+01 -0.165411
  2 S  5.02500000E+00 -0.116955
  2 S  1.01300000E+00  0.557368

  3 S  3.02300000E-01  1.000000

  4 S  7.89600000E-02  1.000000

  5 P  1.77000000E+01  0.043018
  5 P  3.85400000E+00  0.228913
  5 P  1.04600000E+00  0.508728

  6 P  2.75300000E-01  1.000000

  7 P  6.85600000E-02  1.000000

  8 D  1.18500000E+00  1.000000

  9 D  3.32000000E-01  1.000000

  hydrogen (Hydrogen)
  -------------------
            Exponent  Coefficients 
       -------------- ---------------------------------------------------------
  1 S  1.30100000E+01  0.019685
  1 S  1.96200000E+00  0.137977
  1 S  4.44600000E-01  0.478148

  2 S  1.22000000E-01  1.000000

  3 S  2.97400000E-02  1.000000

  4 P  7.27000000E-01  1.000000

  5 P  1.41000000E-01  1.000000



 Summary of "ao basis" -> "" (spherical)
 ------------------------------------------------------------------------------
       Tag                 Description            Shells   Functions and Types
 ---------------- ------------------------------  ------  ---------------------
 oxygen                   aug-cc-pvdz                9       23   4s3p2d
 hydrogen                 aug-cc-pvdz                5        9   3s2p


                                 NWChem DFT Module
                                 -----------------


                                 H2O-opt-gradient



int_init: setting std/high accuracies to  1.0D-16  1.0D-32
  Caching 1-el integrals 

            General Information
            -------------------
          SCF calculation type: DFT
          Wavefunction type:  closed shell.
          No. of atoms     :     3
          No. of electrons :    10
           Alpha electrons :     5
            Beta electrons :     5
          Charge           :     0
          Spin multiplicity:     1
          Use of symmetry is: on ; symmetry adaption is: on 
          Maximum number of iterations: 800
          AO basis - number of functions:    41
                     number of shells:    19
          Convergence on energy requested: 1.00D-06
          Convergence on density requested: 1.00D-05
          Convergence on gradient requested: 5.00D-04

              XC Information
              --------------
                         B3LYP Method XC Potential
                     Hartree-Fock (Exact) Exchange  0.200          
                        Slater Exchange Functional  0.800 local    
                    Becke 1988 Exchange Functional  0.720 non-local
              Lee-Yang-Parr Correlation Functional  0.810          
                  VWN I RPA Correlation Functional  0.190 local    
  WARNING: Sum of nonlocal correlation is   0.81000000000000005     
  Sum of components do not equal unity or 0. 
  WARNING: Sum of nonlocal exchange is   0.91999999999999993     
  Sum of components do not equal unity or 0. 

             Grid Information
             ----------------
          Grid used for XC integration:  xfine     
          Radial quadrature: Mura-Knowles        
          Angular quadrature: Lebedev. 
          Tag              B.-S. Rad. Rad. Pts. Rad. Cut. Ang. Pts.
          ---              ---------- --------- --------- ---------
          O                   0.60      100          10.0      1454
          H                   0.35      100          13.0      1202
          Grid pruning is: on 
          Number of quadrature shells:   200
          Spatial weights used:  Erf1

          Convergence Information
          -----------------------
          Convergence aids based upon iterative change in 
          total energy or number of iterations. 
          Levelshifting, if invoked, occurs when the 
          HOMO/LUMO gap drops below (HL_TOL): 1.00D-02
          DIIS, if invoked, will attempt to extrapolate 
          using up to (NFOCK): 10 stored Fock matrices.

                    Damping( 0%)  Levelshifting(0.5)       DIIS
                  --------------- ------------------- ---------------
          dE  on:    start            ASAP                start   
          dE off:    2 iters        800 iters           800 iters 


      Screening Tolerance Information
      -------------------------------
          Density screening/tol_rho: 1.00D-10
          AO Gaussian exp screening on grid/accAOfunc:  14
          CD Gaussian exp screening on grid/accCDfunc:  20
          XC Gaussian exp screening on grid/accXCfunc:  20
          Schwarz screening/accCoul: 1.00D-12


      Superposition of Atomic Density Guess
      -------------------------------------

 Sum of atomic energies:         -75.76548395

      Non-variational initial energy
      ------------------------------

 Total energy =     -75.915139
 1-e energy   =    -121.534245
 2-e energy   =      36.497757
 HOMO         =      -0.480656
 LUMO         =       0.011401


      Symmetry analysis of molecular orbitals - initial
      -------------------------------------------------

  Numbering of irreducible representations: 

     1 a1          2 a2          3 b1          4 b2      

  Orbital symmetries:

     1 a1          2 a1          3 b1          4 a1          5 b2      
     6 a1          7 b1          8 a1          9 b2         10 a1      
    11 b1         12 b1         13 a1         14 a2         15 a1      

   Time after variat. SCF:      0.3

     ---------------------------------------------
      Total Density - Mulliken Population Analysis
     ---------------------------------------------

    Atom       Charge   Shell Charges
 -----------   ------   -------------------------------------------------------
    1 O    8     8.60   2.00  0.88  0.81  0.06  3.05  1.70  0.11  0.01 -0.02
    2 H    1     0.70   0.59  0.05 -0.00  0.07 -0.00
    3 H    1     0.70   0.59  0.05 -0.00  0.07 -0.00
   Time prior to 1st pass:      0.3

 Integral file          = ./H2O-opt-gradient.aoints.0
 Record size in doubles =  65536        No. of integs per rec  =  43688
 Max. records in memory =      5        Max. records in file   = 396801
 No. of bits per label  =      8        No. of bits per value  =     64


 #quartets = 1.144D+04 #integrals = 1.161D+05 #direct =  0.0% #cached =100.0%


 Grid_pts file          = ./H2O-opt-gradient.gridpts.0
 Record size in doubles =  12289        No. of grid_pts per rec  =   3070
 Max. records in memory =    106        Max. recs in file   =   2116103


           Memory utilization after 1st SCF pass: 
           Heap Space remaining (MW):       11.47            11474683
          Stack Space remaining (MW):       13.11            13106869

   convergence    iter        energy       DeltaE   RMS-Dens  Diis-err    time
 ---------------- ----- ----------------- --------- --------- ---------  ------
 d= 0,ls=0.0,diis     1    -76.4056625412 -8.55D+01  1.81D-02  3.59D-01     1.9
 d= 0,ls=0.0,diis     2    -76.3776423099  2.80D-02  8.47D-03  7.09D-01     3.1
 d= 0,ls=0.0,diis     3    -76.4436137527 -6.60D-02  1.02D-03  1.12D-02     4.3
 d= 0,ls=0.0,diis     4    -76.4446281730 -1.01D-03  1.29D-04  1.62D-04     5.5
 d= 0,ls=0.0,diis     5    -76.4446435648 -1.54D-05  7.43D-06  1.28D-07     6.7
 d= 0,ls=0.0,diis     6    -76.4446435804 -1.56D-08  9.66D-07  4.68D-09     7.8


         Total DFT energy =      -76.444643580409
      One electron energy =     -122.827967176663
           Coulomb energy =       46.580915007792
          Exchange energy =       -8.880885283917
       Correlation energy =       -0.438055874092
 Nuclear repulsion energy =        9.121349746471

 Numeric. integr. density =       10.000000009828

     Total iterative time =      7.6s



                       DFT Final Molecular Orbital Analysis
                       ------------------------------------

 Vector    1  Occ=2.000000D+00  E=-1.916135D+01  Symmetry=a1
              MO Center= -4.3D-18,  2.4D-19,  1.2D-01, r^2= 1.5D-02
   Bfn.  Coefficient  Atom+Function         Bfn.  Coefficient  Atom+Function  
  ----- ------------  ---------------      ----- ------------  ---------------
     1      1.004434  1 O  s          

 Vector    2  Occ=2.000000D+00  E=-1.022422D+00  Symmetry=a1
              MO Center=  9.8D-19, -2.0D-32, -7.8D-02, r^2= 5.0D-01
   Bfn.  Coefficient  Atom+Function         Bfn.  Coefficient  Atom+Function  
  ----- ------------  ---------------      ----- ------------  ---------------
     2     -0.450494  1 O  s                  3     -0.353422  1 O  s          
    24     -0.214527  2 H  s                 33     -0.214527  3 H  s          

 Vector    3  Occ=2.000000D+00  E=-5.396095D-01  Symmetry=b1
              MO Center= -5.7D-17, -9.0D-17, -9.6D-02, r^2= 7.8D-01
   Bfn.  Coefficient  Atom+Function         Bfn.  Coefficient  Atom+Function  
  ----- ------------  ---------------      ----- ------------  ---------------
     5      0.515811  1 O  px                24      0.363304  2 H  s          
    33     -0.363304  3 H  s          

 Vector    4  Occ=2.000000D+00  E=-3.994572D-01  Symmetry=a1
              MO Center= -2.5D-16, -1.1D-16,  1.8D-01, r^2= 7.5D-01
   Bfn.  Coefficient  Atom+Function         Bfn.  Coefficient  Atom+Function  
  ----- ------------  ---------------      ----- ------------  ---------------
     7     -0.553129  1 O  pz                 3     -0.330640  1 O  s          
    10     -0.292620  1 O  pz                33      0.209763  3 H  s          
    24      0.209763  2 H  s                  2     -0.165423  1 O  s          

 Vector    5  Occ=2.000000D+00  E=-3.231523D-01  Symmetry=b2
              MO Center= -3.6D-17, -4.1D-16,  7.3D-02, r^2= 7.2D-01
   Bfn.  Coefficient  Atom+Function         Bfn.  Coefficient  Atom+Function  
  ----- ------------  ---------------      ----- ------------  ---------------
     6     -0.634618  1 O  py                 9     -0.416338  1 O  py         

 Vector    6  Occ=0.000000D+00  E=-2.494696D-02  Symmetry=a1
              MO Center=  1.8D-15,  1.9D-17, -7.5D-01, r^2= 7.4D+00
   Bfn.  Coefficient  Atom+Function         Bfn.  Coefficient  Atom+Function  
  ----- ------------  ---------------      ----- ------------  ---------------
    26     -0.550402  2 H  s                 35     -0.550402  3 H  s          
     4      0.493262  1 O  s                 34     -0.265347  3 H  s          
    25     -0.265347  2 H  s                  3      0.257683  1 O  s          

 Vector    7  Occ=0.000000D+00  E= 2.258451D-02  Symmetry=b1
              MO Center= -2.0D-14,  3.5D-17, -7.4D-01, r^2= 1.3D+01
   Bfn.  Coefficient  Atom+Function         Bfn.  Coefficient  Atom+Function  
  ----- ------------  ---------------      ----- ------------  ---------------
    35     -2.416774  3 H  s                 26      2.416774  2 H  s          
    11     -0.506348  1 O  px                34     -0.413381  3 H  s          
    25      0.413381  2 H  s                  8     -0.167886  1 O  px         
     5     -0.160046  1 O  px         

 Vector    8  Occ=0.000000D+00  E= 1.001021D-01  Symmetry=a1
              MO Center=  8.9D-15, -1.8D-19,  2.8D-01, r^2= 9.5D+00
   Bfn.  Coefficient  Atom+Function         Bfn.  Coefficient  Atom+Function  
  ----- ------------  ---------------      ----- ------------  ---------------
     4      3.422306  1 O  s                 13     -1.432397  1 O  pz         
    25     -1.162813  2 H  s                 34     -1.162813  3 H  s          
    26     -0.815034  2 H  s                 35     -0.815034  3 H  s          
    39     -0.309034  3 H  px                30      0.309034  2 H  px         
     7      0.249553  1 O  pz                 3      0.219091  1 O  s          

 Vector    9  Occ=0.000000D+00  E= 1.189440D-01  Symmetry=b2
              MO Center= -2.1D-17,  3.8D-19,  2.8D-01, r^2= 6.0D+00
   Bfn.  Coefficient  Atom+Function         Bfn.  Coefficient  Atom+Function  
  ----- ------------  ---------------      ----- ------------  ---------------
    12      1.302860  1 O  py                 9     -0.271790  1 O  py         
     6     -0.239376  1 O  py                31     -0.166813  2 H  py         
    40     -0.166813  3 H  py         

 Vector   10  Occ=0.000000D+00  E= 1.302256D-01  Symmetry=a1
              MO Center=  1.3D-15, -2.5D-19, -2.2D-01, r^2= 7.7D+00
   Bfn.  Coefficient  Atom+Function         Bfn.  Coefficient  Atom+Function  
  ----- ------------  ---------------      ----- ------------  ---------------
     4     -1.271072  1 O  s                 13     -0.920213  1 O  pz         
    26      0.581263  2 H  s                 35      0.581263  3 H  s          
    30     -0.296571  2 H  px                39      0.296571  3 H  px         
    34     -0.278020  3 H  s                 25     -0.278020  2 H  s          
    32      0.275266  2 H  pz                41      0.275266  3 H  pz         

 Vector   11  Occ=0.000000D+00  E= 1.491765D-01  Symmetry=b1
              MO Center=  3.3D-15, -2.1D-17, -7.7D-01, r^2= 8.8D+00
   Bfn.  Coefficient  Atom+Function         Bfn.  Coefficient  Atom+Function  
  ----- ------------  ---------------      ----- ------------  ---------------
    26      2.529397  2 H  s                 35     -2.529397  3 H  s          
    11     -1.457854  1 O  px                25      0.768731  2 H  s          
    34     -0.768731  3 H  s                 32      0.546914  2 H  pz         
    41     -0.546914  3 H  pz                30     -0.527430  2 H  px         
    39     -0.527430  3 H  px                 5      0.344637  1 O  px         

 Vector   12  Occ=0.000000D+00  E= 1.772564D-01  Symmetry=b1
              MO Center=  4.6D-16,  1.1D-31,  5.3D-01, r^2= 6.5D+00
   Bfn.  Coefficient  Atom+Function         Bfn.  Coefficient  Atom+Function  
  ----- ------------  ---------------      ----- ------------  ---------------
    11     -2.596398  1 O  px                34     -2.185908  3 H  s          
    25      2.185908  2 H  s                 35     -1.659104  3 H  s          
    26      1.659104  2 H  s                  8     -0.303109  1 O  px         
    24      0.188352  2 H  s                 33     -0.188352  3 H  s          

 Vector   13  Occ=0.000000D+00  E= 2.211850D-01  Symmetry=a1
              MO Center=  4.4D-15,  1.6D-17, -1.5D-01, r^2= 4.8D+00
   Bfn.  Coefficient  Atom+Function         Bfn.  Coefficient  Atom+Function  
  ----- ------------  ---------------      ----- ------------  ---------------
     4     -4.655938  1 O  s                 34      2.268105  3 H  s          
    25      2.268105  2 H  s                 13      0.588370  1 O  pz         
    41      0.499110  3 H  pz                32      0.499110  2 H  pz         
    35      0.390149  3 H  s                 26      0.390149  2 H  s          
    30      0.278779  2 H  px                39     -0.278779  3 H  px         

 Vector   14  Occ=0.000000D+00  E= 2.742194D-01  Symmetry=a2
              MO Center=  1.1D-16, -2.7D-17, -5.1D-01, r^2= 3.9D+00
   Bfn.  Coefficient  Atom+Function         Bfn.  Coefficient  Atom+Function  
  ----- ------------  ---------------      ----- ------------  ---------------
    31      1.095914  2 H  py                40     -1.095914  3 H  py         

 Vector   15  Occ=0.000000D+00  E= 2.889112D-01  Symmetry=a1
              MO Center=  1.6D-15,  6.0D-17, -6.3D-02, r^2= 5.1D+00
   Bfn.  Coefficient  Atom+Function         Bfn.  Coefficient  Atom+Function  
  ----- ------------  ---------------      ----- ------------  ---------------
     4      4.608723  1 O  s                 25     -2.344145  2 H  s          
    34     -2.344145  3 H  s                 13     -1.962241  1 O  pz         
    10     -0.686067  1 O  pz                32      0.641655  2 H  pz         
    41      0.641655  3 H  pz                39     -0.399672  3 H  px         
    30      0.399672  2 H  px                35     -0.364005  3 H  s          

 Vector   16  Occ=0.000000D+00  E= 3.173313D-01  Symmetry=b2
              MO Center= -1.7D-16,  1.9D-16, -3.3D-01, r^2= 4.4D+00
   Bfn.  Coefficient  Atom+Function         Bfn.  Coefficient  Atom+Function  
  ----- ------------  ---------------      ----- ------------  ---------------
    12      1.268375  1 O  py                40     -1.174440  3 H  py         
    31     -1.174440  2 H  py                 9      0.574034  1 O  py         
     6      0.167232  1 O  py         

 Vector   17  Occ=0.000000D+00  E= 4.358053D-01  Symmetry=b1
              MO Center= -1.9D-15,  1.2D-32, -3.8D-01, r^2= 5.4D+00
   Bfn.  Coefficient  Atom+Function         Bfn.  Coefficient  Atom+Function  
  ----- ------------  ---------------      ----- ------------  ---------------
    11      2.269820  1 O  px                30     -1.969518  2 H  px         
    39     -1.969518  3 H  px                32     -1.182998  2 H  pz         
    41      1.182998  3 H  pz                26     -1.007177  2 H  s          
    35      1.007177  3 H  s                 25      0.637957  2 H  s          
    34     -0.637957  3 H  s                  8      0.233283  1 O  px         

 Vector   18  Occ=0.000000D+00  E= 4.998589D-01  Symmetry=a1
              MO Center=  4.9D-15,  7.5D-17, -6.4D-01, r^2= 5.0D+00
   Bfn.  Coefficient  Atom+Function         Bfn.  Coefficient  Atom+Function  
  ----- ------------  ---------------      ----- ------------  ---------------
     4      5.259340  1 O  s                 25     -2.869908  2 H  s          
    34     -2.869908  3 H  s                  3      2.463709  1 O  s          
    30      1.300514  2 H  px                39     -1.300514  3 H  px         
    41     -1.140119  3 H  pz                32     -1.140119  2 H  pz         
    26     -0.591152  2 H  s                 35     -0.591152  3 H  s          

 Vector   19  Occ=0.000000D+00  E= 5.208029D-01  Symmetry=b1
              MO Center= -7.9D-15, -8.6D-32, -4.6D-01, r^2= 5.1D+00
   Bfn.  Coefficient  Atom+Function         Bfn.  Coefficient  Atom+Function  
  ----- ------------  ---------------      ----- ------------  ---------------
    25      6.842504  2 H  s                 34     -6.842504  3 H  s          
    30     -3.041495  2 H  px                39     -3.041495  3 H  px         
    11     -1.881892  1 O  px                41     -1.482686  3 H  pz         
    32      1.482686  2 H  pz                26      1.404567  2 H  s          
    35     -1.404567  3 H  s                  8     -1.380736  1 O  px         


     ---------------------------------------------
      Total Density - Mulliken Population Analysis
     ---------------------------------------------

    Atom       Charge   Shell Charges
 -----------   ------   -------------------------------------------------------
    1 O    8     8.17   2.01  0.85  0.79  0.10  2.87  1.43  0.14  0.01 -0.02
    2 H    1     0.92   0.74  0.06 -0.00  0.08  0.03
    3 H    1     0.92   0.74  0.06 -0.00  0.08  0.03

     -------------------------------------------
      Total Density - Lowdin Population Analysis
     -------------------------------------------

    Atom       Charge   Shell Charges
 -----------   ------   -------------------------------------------------------
    1 O    8     7.79   1.90  0.76  0.52  0.08  2.64  1.62  0.20  0.01  0.04
    2 H    1     1.11   0.50  0.12  0.01  0.18  0.29
    3 H    1     1.11   0.50  0.12  0.01  0.18  0.29

 center of mass
 --------------
 x =   0.00000000 y =   0.00000000 z =   0.09805731

 moments of inertia (a.u.)
 ------------------
           2.218322584979           0.000000000000           0.000000000000
           0.000000000000           6.421617333064           0.000000000000
           0.000000000000           0.000000000000           4.203294748085

     Multipole analysis of the density
     ---------------------------------

     L   x y z        total         alpha         beta         nuclear
     -   - - -        -----         -----         ----         -------
     0   0 0 0     -0.000000     -5.000000     -5.000000     10.000000

     1   1 0 0      0.000000      0.000000      0.000000      0.000000
     1   0 1 0      0.000000      0.000000      0.000000      0.000000
     1   0 0 1     -0.729338     -0.364669     -0.364669      0.000000

     2   2 0 0     -3.367282     -3.768971     -3.768971      4.170659
     2   1 1 0     -0.000000     -0.000000     -0.000000     -0.000000
     2   1 0 1      0.000000      0.000000      0.000000      0.000000
     2   0 2 0     -5.813525     -2.906763     -2.906763      0.000000
     2   0 1 1      0.000000      0.000000      0.000000     -0.000000
     2   0 0 2     -4.847353     -3.415067     -3.415067      1.982782


 Parallel integral file used       3 records with       0 large values


int_init: setting std/high accuracies to  1.0D-16  1.0D-32


                            NWChem DFT Gradient Module
                            --------------------------


                                 H2O-opt-gradient



  charge          =   0.00
  wavefunction    = closed shell

  Using symmetry

int_init: setting std/high accuracies to  1.0D-16  1.0D-32


                         DFT ENERGY GRADIENTS

    atom               coordinates                        gradient
                 x          y          z           x          y          z
   1 O       0.000000   0.000000   0.222642    0.000000   0.000000   0.000005
   2 H       1.444067   0.000000  -0.890569    0.000002   0.000000  -0.000003
   3 H      -1.444067   0.000000  -0.890569   -0.000002   0.000000  -0.000003

                 ----------------------------------------
                 |  Time  |  1-e(secs)   |  2-e(secs)   |
                 ----------------------------------------
                 |  CPU   |       0.00   |       1.01   |
                 ----------------------------------------
                 |  WALL  |       0.00   |       1.01   |
                 ----------------------------------------

 Task  times  cpu:       10.5s     wall:       11.9s
 Summary of allocated global arrays
-----------------------------------
  No active global arrays



                         GA Statistics for process    0
                         ------------------------------

       create   destroy   get      put      acc     scatter   gather  read&inc
calls:  174      174     2.40e+04 3140     2537        1        0        0     
number of processes/call 1.00e+00 1.00e+00 1.00e+00 1.00e+00 0.00e+00
bytes total:             1.16e+07 2.38e+06 5.24e+06 4.00e+01 0.00e+00 0.00e+00
bytes remote:            0.00e+00 0.00e+00 0.00e+00 0.00e+00 0.00e+00 0.00e+00
Max memory consumed for GA by this process: 511024 bytes
MA_summarize_allocated_blocks: starting scan ...
MA_summarize_allocated_blocks: scan completed: 0 heap blocks, 0 stack blocks
MA usage statistics:

	allocation statistics:
					      heap	     stack
					      ----	     -----
	current number of blocks	         0	         0
	maximum number of blocks	        24	        50
	current total bytes		         0	         0
	maximum total bytes		  13060144	  23550936
	maximum total K-bytes		     13061	     23551
	maximum total M-bytes		        14	        24


                                NWChem Input Module
                                -------------------






                                  ACKNOWLEDGEMENT
                                  ---------------

            Please use the following acknowledgement where appropriate 
            for results obtained with NWChem:

            High Performance Computational Chemistry Group, "NWChem, A
            Computational Chemistry Package for Parallel Computers, 
            Version 5.1" (2007), Pacific Northwest National Laboratory,
            Richland, Washington 99352-0999, USA.


                                     CITATION
                                     --------

          Please use the following citation when publishing results
          obtained with NWChem:

          E. J. Bylaska, W. A. de Jong, N. Govind, K. Kowalski, T. P. Straatsma,
          M. Valiev, D. Wang, E. Apra, T. L. Windus, J. Hammond, P. Nichols,
          S. Hirata, M. T. Hackler, Y. Zhao, P.-D. Fan, R. J. Harrison,
          M. Dupuis, D. M. A. Smith, J. Nieplocha, V. Tipparaju, M. Krishnan,
          Q. Wu, T. Van Voorhis, A. A. Auer, M. Nooijen,
          E. Brown, G. Cisneros, G. I. Fann, H. Fruchtl, J. Garza, K. Hirao,
          R. Kendall, J. A. Nichols, K. Tsemekhman, K. Wolinski, J. Anchell,
          D. Bernholdt, P. Borowski, T. Clark, D. Clerc, H. Dachsel, M. Deegan,
          K. Dyall, D. Elwood, E. Glendening, M. Gutowski, A. Hess, J. Jaffe,
          B. Johnson, J. Ju, R. Kobayashi, R. Kutteh, Z. Lin, R. Littlefield,
          X. Long, B. Meng, T. Nakajima, S. Niu, L. Pollack, M. Rosing,
          G. Sandrone, M. Stave, H. Taylor, G. Thomas, J. van Lenthe, A. Wong,
          and Z. Zhang,
          "NWChem, A Computational Chemistry Package for Parallel Computers, 
          Version 5.1" (2007),
                      Pacific Northwest National Laboratory,
                      Richland, Washington 99352-0999, USA.



 Total times  cpu:       10.5s     wall:       18.5s
