 Entering Gaussian System, Link 0=g03
 Initial command:
 /share/apps/g03d02/g03/l1.exe /scratch/auclark/Gau-23045.inp -scrdir=/scratch/auclark/
 Entering Link 1 = /share/apps/g03d02/g03/l1.exe PID=     23046.
  
 Copyright (c) 1988,1990,1992,1993,1995,1998,2003,2004, Gaussian, Inc.
                  All Rights Reserved.
  
 This is the Gaussian(R) 03 program.  It is based on the
 the Gaussian(R) 98 system (copyright 1998, Gaussian, Inc.),
 the Gaussian(R) 94 system (copyright 1995, Gaussian, Inc.),
 the Gaussian 92(TM) system (copyright 1992, Gaussian, Inc.),
 the Gaussian 90(TM) system (copyright 1990, Gaussian, Inc.),
 the Gaussian 88(TM) system (copyright 1988, Gaussian, Inc.),
 the Gaussian 86(TM) system (copyright 1986, Carnegie Mellon
 University), and the Gaussian 82(TM) system (copyright 1983,
 Carnegie Mellon University). Gaussian is a federally registered
 trademark of Gaussian, Inc.
  
 This software contains proprietary and confidential information,
 including trade secrets, belonging to Gaussian, Inc.
  
 This software is provided under written license and may be
 used, copied, transmitted, or stored only in accord with that
 written license.
  
 The following legend is applicable only to US Government
 contracts under FAR:
  
                    RESTRICTED RIGHTS LEGEND
  
 Use, reproduction and disclosure by the US Government is
 subject to restrictions as set forth in subparagraphs (a)
 and (c) of the Commercial Computer Software - Restricted
 Rights clause in FAR 52.227-19.
  
 Gaussian, Inc.
 340 Quinnipiac St., Bldg. 40, Wallingford CT 06492
  
  
 ---------------------------------------------------------------
 Warning -- This program may not be used in any manner that
 competes with the business of Gaussian, Inc. or will provide
 assistance to any competitor of Gaussian, Inc.  The licensee
 of this program is prohibited from giving any competitor of
 Gaussian, Inc. access to this program.  By using this program,
 the user acknowledges that Gaussian, Inc. is engaged in the
 business of creating and licensing software in the field of
 computational chemistry and represents and warrants to the
 licensee that it is not a competitor of Gaussian, Inc. and that
 it will not use this program in any manner prohibited above.
 ---------------------------------------------------------------
  

 Cite this work as:
 Gaussian 03, Revision D.02,
 M. J. Frisch, G. W. Trucks, H. B. Schlegel, G. E. Scuseria, 
 M. A. Robb, J. R. Cheeseman, J. A. Montgomery, Jr., T. Vreven, 
 K. N. Kudin, J. C. Burant, J. M. Millam, S. S. Iyengar, J. Tomasi, 
 V. Barone, B. Mennucci, M. Cossi, G. Scalmani, N. Rega, 
 G. A. Petersson, H. Nakatsuji, M. Hada, M. Ehara, K. Toyota, 
 R. Fukuda, J. Hasegawa, M. Ishida, T. Nakajima, Y. Honda, O. Kitao, 
 H. Nakai, M. Klene, X. Li, J. E. Knox, H. P. Hratchian, J. B. Cross, 
 V. Bakken, C. Adamo, J. Jaramillo, R. Gomperts, R. E. Stratmann, 
 O. Yazyev, A. J. Austin, R. Cammi, C. Pomelli, J. W. Ochterski, 
 P. Y. Ayala, K. Morokuma, G. A. Voth, P. Salvador, J. J. Dannenberg, 
 V. G. Zakrzewski, S. Dapprich, A. D. Daniels, M. C. Strain, 
 O. Farkas, D. K. Malick, A. D. Rabuck, K. Raghavachari, 
 J. B. Foresman, J. V. Ortiz, Q. Cui, A. G. Baboul, S. Clifford, 
 J. Cioslowski, B. B. Stefanov, G. Liu, A. Liashenko, P. Piskorz, 
 I. Komaromi, R. L. Martin, D. J. Fox, T. Keith, M. A. Al-Laham, 
 C. Y. Peng, A. Nanayakkara, M. Challacombe, P. M. W. Gill, 
 B. Johnson, W. Chen, M. W. Wong, C. Gonzalez, and J. A. Pople, 
 Gaussian, Inc., Wallingford CT, 2004.
 
 ******************************************
 Gaussian 03:  AM64L-G03RevD.02  1-Mar-2006
                29-Apr-2008 
 ******************************************
 %mem=3gb
 %nproc=4
 Will use up to    4 processors via shared memory.
 ----------------------------------------------------------------------
 # b3lyp / gen pseudo=read integral(grid=ultrafine) scf(verytight, maxc
 ycle=300) opt FREQ = HPMODES nosymm
 ----------------------------------------------------------------------
 1/14=-1,18=20,26=3,38=1/1,3;
 2/9=110,15=1,17=6,18=5,40=1/2;
 3/5=7,11=2,16=1,17=8,25=1,30=1,74=-5,75=5/1,2,3;
 4//1;
 5/5=2,7=300,17=3,38=5/2;
 6/7=2,8=2,9=2,10=2,28=1/1;
 7/30=1/1,2,3,16;
 1/14=-1,18=20/3(3);
 2/9=110,15=1/2;
 6/7=2,8=2,9=2,10=2,19=2,28=1/1;
 99//99;
 2/9=110,15=1/2;
 3/5=7,6=1,11=2,16=1,17=8,25=1,30=1,74=-5,75=5,82=7/1,2,3;
 4/5=5,16=3/1;
 5/5=2,7=300,17=3,38=5/2;
 7/30=1/1,2,3,16;
 1/14=-1,18=20/3(-5);
 2/9=110,15=1/2;
 6/7=2,8=2,9=2,10=2,19=2,28=1/1;
 99/9=1/99;
 ----
 test
 ----
 Symbolic Z-matrix:
 Charge =  3 Multiplicity = 1
 La                   -0.00516   0.23691   0. 
 O                     0.00468  -2.05245   0. 
 H                    -0.7752   -2.67485   0. 
 H                     0.79075  -2.66698   0. 
 

 GradGradGradGradGradGradGradGradGradGradGradGradGradGradGradGradGradGrad
 Berny optimization.
 Initialization pass.
                           ----------------------------
                           !    Initial Parameters    !
                           ! (Angstroms and Degrees)  !
 --------------------------                            --------------------------
 ! Name  Definition              Value          Derivative Info.                !
 --------------------------------------------------------------------------------
 ! R1    R(1,2)                  2.2894         estimate D2E/DX2                !
 ! R2    R(2,3)                  0.9978         estimate D2E/DX2                !
 ! R3    R(2,4)                  0.9978         estimate D2E/DX2                !
 ! A1    A(1,2,3)              128.3464         estimate D2E/DX2                !
 ! A2    A(1,2,4)              128.2634         estimate D2E/DX2                !
 ! A3    A(3,2,4)              103.3902         estimate D2E/DX2                !
 ! A4    L(1,2,3,4,-2)         180.0            estimate D2E/DX2                !
 --------------------------------------------------------------------------------
 Trust Radius=3.00D-01 FncErr=1.00D-07 GrdErr=1.00D-06
 Number of steps in this run=  20 maximum allowed number of steps= 100.
 GradGradGradGradGradGradGradGradGradGradGradGradGradGradGradGradGradGrad

                          Input orientation:                          
 ---------------------------------------------------------------------
 Center     Atomic     Atomic              Coordinates (Angstroms)
 Number     Number      Type              X           Y           Z
 ---------------------------------------------------------------------
    1         57             0       -0.005164    0.236905    0.000000
    2          8             0        0.004676   -2.052452    0.000000
    3          1             0       -0.775197   -2.674854    0.000000
    4          1             0        0.790751   -2.666979    0.000000
 ---------------------------------------------------------------------
                    Distance matrix (angstroms):
                    1          2          3          4
     1  La   0.000000
     2  O    2.289378   0.000000
     3  H    3.011858   0.997791   0.000000
     4  H    3.010984   0.997777   1.565968   0.000000
 Symmetry turned off by external request.
 Stoichiometry    H2LaO(3+)
 Framework group  CS[SG(H2LaO)]
 Deg. of freedom     5
 Full point group                 CS
 Rotational constants (GHZ):    408.9745901      5.6544614      5.5773492
 General basis read from cards:  (5D, 7F)
 ===================================================================================================================================
 Pseudopotential Parameters 
 ===================================================================================================================================
  Center     Atomic      Valence      Angular      Power                                                       Coordinates
  Number     Number     Electrons     Momentum     of R      Exponent        Coefficient                X           Y           Z
 ===================================================================================================================================
    1         57           29                                                                      -0.009759  0.447686  0.000000
                                      H and up 
                                                     2        1.0000000        0.00000000
                                      S - H
                                                     2       19.4414180      585.20195300
                                      P - H
                                                     2       16.0163530      330.10951000
                                      D - H
                                                     2       15.1282590      186.05823200
                                      F - H
                                                     2       23.1038750      -49.43335200
                                      G - H
                                                     2       15.6390200      -20.12302000
    2          8                                                                                    0.008836 -3.878572  0.000000
                                   No pseudopotential on this center.
    3          1                                                                                   -1.464911 -5.054741  0.000000
                                   No pseudopotential on this center.
    4          1                                                                                    1.494303 -5.039861  0.000000
                                   No pseudopotential on this center.
 ===================================================================================================================================
 Integral buffers will be    131072 words long.
 Raffenetti 2 integral format.
 Two-electron integral symmetry is turned off.
   154 basis functions,   347 primitive gaussians,   191 cartesian basis functions
    18 alpha electrons       18 beta electrons
       nuclear repulsion energy        72.6410566998 Hartrees.
 NAtoms=    4 NActive=    4 NUniq=    4 SFac= 7.50D-01 NAtFMM=   80 NAOKFM=F Big=F
 One-electron integrals computed using PRISM.
   1 Symmetry operations used in ECPInt.
 ECPInt:  NShTT=    1176 NPrTT=    3935 LenC2=    1171 LenP2D=    3412.
 LDataN:  DoStor=F MaxTD1= 9 Len=  602
 LDataN:  DoStor=T MaxTD1= 9 Len=  602
 NBasis=   154 RedAO= T  NBF=   154
 NBsUse=   154 1.00D-06 NBFU=   154
 Defaulting to unpruned grid for atomic number  57.
 Harris functional with IExCor=  402 diagonalized for initial guess.
 ExpMin= 2.97D-02 ExpMax= 6.02D+04 ExpMxC= 7.14D+03 IAcc=3 IRadAn=         5 AccDes= 0.00D+00
 HarFok:  IExCor= 402 AccDes= 0.00D+00 IRadAn=         5 IDoV=1
 ScaDFX=  1.000000  1.000000  1.000000  1.000000
 Defaulting to unpruned grid for atomic number  57.
 Defaulting to unpruned grid for atomic number  57.
 Defaulting to unpruned grid for atomic number  57.
 Defaulting to unpruned grid for atomic number  57.
 Requested convergence on RMS density matrix=1.00D-08 within 300 cycles.
 Requested convergence on MAX density matrix=1.00D-06.
 Requested convergence on             energy=1.00D-06.
 No special actions if energy rises.
 Keep R1 integrals in memory in canonical form, NReq=   176490850.
 Defaulting to unpruned grid for atomic number  57.
 Defaulting to unpruned grid for atomic number  57.
 Defaulting to unpruned grid for atomic number  57.
 Defaulting to unpruned grid for atomic number  57.
 SCF Done:  E(RB+HF-LYP) =  -510.817481855     A.U. after   15 cycles
             Convg  =    0.1523D-08             -V/T =  3.1555
             S**2   =   0.0000

 **********************************************************************

            Population analysis using the SCF density.

 **********************************************************************

 Alpha  occ. eigenvalues --  -19.83740 -11.23321  -8.49592  -8.49467  -8.49246
 Alpha  occ. eigenvalues --   -4.75688  -4.75681  -4.75541  -4.75445  -4.75411
 Alpha  occ. eigenvalues --   -2.24743  -1.69516  -1.58953  -1.58715  -1.57292
 Alpha  occ. eigenvalues --   -1.18422  -1.11401  -1.00311
 Alpha virt. eigenvalues --   -0.79717  -0.79716  -0.79538  -0.79520  -0.79401
 Alpha virt. eigenvalues --   -0.79219  -0.79147  -0.73575  -0.73560  -0.72997
 Alpha virt. eigenvalues --   -0.71630  -0.69724  -0.62845  -0.52640  -0.52568
 Alpha virt. eigenvalues --   -0.51835  -0.44024  -0.41017  -0.35109  -0.32092
 Alpha virt. eigenvalues --   -0.30113  -0.28953  -0.28519  -0.26963  -0.24688
 Alpha virt. eigenvalues --   -0.23950  -0.22833  -0.22630  -0.21664  -0.21609
 Alpha virt. eigenvalues --   -0.15239  -0.15106  -0.14800  -0.13545  -0.12739
 Alpha virt. eigenvalues --   -0.10674  -0.05095  -0.03484  -0.00886  -0.00140
 Alpha virt. eigenvalues --    0.02567   0.05495   0.08400   0.08917   0.12671
 Alpha virt. eigenvalues --    0.12716   0.12844   0.13201   0.15921   0.15950
 Alpha virt. eigenvalues --    0.17901   0.18192   0.19468   0.21191   0.28863
 Alpha virt. eigenvalues --    0.31384   0.33113   0.40293   0.48399   0.51419
 Alpha virt. eigenvalues --    0.64271   0.75136   0.81390   1.00867   1.14297
 Alpha virt. eigenvalues --    1.16544   1.17782   1.18129   1.21864   1.27407
 Alpha virt. eigenvalues --    1.29817   1.30626   1.31628   1.36166   1.43867
 Alpha virt. eigenvalues --    1.44015   1.46896   1.47954   1.47964   1.48446
 Alpha virt. eigenvalues --    1.48825   1.51719   1.52687   1.53141   1.54105
 Alpha virt. eigenvalues --    1.54243   1.55147   1.56052   1.61233   1.69883
 Alpha virt. eigenvalues --    2.04060   2.13433   2.26028   2.66713   2.73030
 Alpha virt. eigenvalues --    2.79001   2.88996   2.89902   2.94261   3.14461
 Alpha virt. eigenvalues --    3.24919   4.74680   4.74737   4.74989   4.75146
 Alpha virt. eigenvalues --    4.76266   4.76584   4.77150   4.78540   4.80088
 Alpha virt. eigenvalues --    5.35660   5.50597   5.50663   5.51952   5.52703
 Alpha virt. eigenvalues --    5.56613   5.59681   5.70352   8.40076   8.40219
 Alpha virt. eigenvalues --    8.45233   8.48570   8.71826  11.83292  11.84018
 Alpha virt. eigenvalues --   11.99589  51.28594  54.84867  54.85416  54.96583
 Alpha virt. eigenvalues --  143.33979 143.34236 143.41176 156.84224 237.65074
 Alpha virt. eigenvalues --  423.67194
          Condensed to atoms (all electrons):
              1          2          3          4
     1  La  26.255952   0.037074   0.000698   0.000736
     2  O    0.037074   7.596561   0.328183   0.328074
     3  H    0.000698   0.328183   0.443043  -0.064167
     4  H    0.000736   0.328074  -0.064167   0.443249
 Mulliken atomic charges:
              1
     1  La   2.705540
     2  O   -0.289891
     3  H    0.292243
     4  H    0.292109
 Sum of Mulliken charges=   3.00000
 Atomic charges with hydrogens summed into heavy atoms:
              1
     1  La   2.705540
     2  O    0.294460
     3  H    0.000000
     4  H    0.000000
 Sum of Mulliken charges=   3.00000
 Electronic spatial extent (au):  <R**2>=   215.2936
 Charge=     3.0000 electrons
 Dipole moment (field-independent basis, Debye):
    X=    -0.0441    Y=    -3.3015    Z=     0.0000  Tot=     3.3018
 Quadrupole moment (field-independent basis, Debye-Ang):
   XX=   -20.4521   YY=    -0.6041   ZZ=   -24.4085
   XY=    -0.0737   XZ=     0.0000   YZ=     0.0000
 Traceless Quadrupole moment (field-independent basis, Debye-Ang):
   XX=    -5.2972   YY=    14.5508   ZZ=    -9.2536
   XY=    -0.0737   XZ=     0.0000   YZ=     0.0000
 Octapole moment (field-independent basis, Debye-Ang**2):
  XXX=     0.2555  YYY=   -45.3596  ZZZ=     0.0000  XYY=     0.1977
  XXY=     0.1393  XXZ=     0.0000  XZZ=     0.0573  YZZ=    10.0988
  YYZ=     0.0000  XYZ=     0.0000
 Hexadecapole moment (field-independent basis, Debye-Ang**3):
 XXXX=   -15.4526 YYYY=    26.9524 ZZZZ=   -17.0815 XXXY=     0.0529
 XXXZ=     0.0000 YYYX=    -0.0365 YYYZ=     0.0000 ZZZX=     0.0000
 ZZZY=     0.0000 XXYY=    -9.9992 XXZZ=    -5.8343 YYZZ=   -36.0493
 XXYZ=     0.0000 YYXZ=     0.0000 ZZXY=     0.0888
 N-N= 7.264105669981D+01 E-N=-1.198259166850D+03  KE= 2.369876145159D+02
   1 Symmetry operations used in ECPInt.
 ECPInt:  NShTT=    1176 NPrTT=    3935 LenC2=    1171 LenP2D=    3412.
 LDataN:  DoStor=F MaxTD1=10 Len=  848
 LDataN:  DoStor=T MaxTD1=10 Len=  848
 Defaulting to unpruned grid for atomic number  57.
 Defaulting to unpruned grid for atomic number  57.
 Defaulting to unpruned grid for atomic number  57.
 Defaulting to unpruned grid for atomic number  57.
 -------------------------------------------------------------------
 Center     Atomic                   Forces (Hartrees/Bohr)
 Number     Number              X              Y              Z
 -------------------------------------------------------------------
    1         57          -0.000016831    0.000074352    0.000000000
    2          8           0.000038935   -0.000095791    0.000000000
    3          1           0.000011391    0.000027780    0.000000000
    4          1          -0.000033496   -0.000006342    0.000000000
 -------------------------------------------------------------------
 Cartesian Forces:  Max     0.000095791 RMS     0.000039335

 GradGradGradGradGradGradGradGradGradGradGradGradGradGradGradGradGradGrad
 Berny optimization.
 Internal  Forces:  Max     0.000074424 RMS     0.000036978
 Search for a local minimum.
 Step number   1 out of a maximum of  20
 All quantities printed in internal units (Hartrees-Bohrs-Radians)
 Second derivative matrix not updated -- first step.
 The second derivative matrix:
                          R1        R2        R3        A1        A2
           R1           0.09783
           R2           0.00000   0.48079
           R3           0.00000   0.00000   0.48081
           A1           0.00000   0.00000   0.00000   0.16000
           A2           0.00000   0.00000   0.00000   0.00000   0.16000
           A3           0.00000   0.00000   0.00000   0.00000   0.00000
           A4           0.00000   0.00000   0.00000   0.00000   0.00000
                          A3        A4
           A3           0.16000
           A4           0.00000   0.16000
     Eigenvalues ---    0.09783   0.16000   0.16000   0.16000   0.48079
     Eigenvalues ---    0.480811000.00000
 RFO step:  Lambda=-7.68417535D-08.
 Linear search not attempted -- first point.
 Iteration  1 RMS(Cart)=  0.00029443 RMS(Int)=  0.00000001
 Iteration  2 RMS(Cart)=  0.00000001 RMS(Int)=  0.00000000
 Variable       Old X    -DE/DX   Delta X   Delta X   Delta X     New X
                                 (Linear)    (Quad)   (Total)
    R1        4.32630   0.00007   0.00000   0.00076   0.00076   4.32706
    R2        1.88555  -0.00003   0.00000  -0.00005  -0.00005   1.88550
    R3        1.88552  -0.00002   0.00000  -0.00005  -0.00005   1.88548
    A1        2.24007  -0.00003   0.00000  -0.00021  -0.00021   2.23986
    A2        2.23862   0.00004   0.00000   0.00025   0.00025   2.23887
    A3        1.80450  -0.00001   0.00000  -0.00004  -0.00004   1.80446
    A4        3.14159   0.00000   0.00000   0.00000   0.00000   3.14159
         Item               Value     Threshold  Converged?
 Maximum Force            0.000074     0.000450     YES
 RMS     Force            0.000037     0.000300     YES
 Maximum Displacement     0.000570     0.001800     YES
 RMS     Displacement     0.000294     0.001200     YES
 Predicted change in Energy=-3.842088D-08
 Optimization completed.
    -- Stationary point found.
                           ----------------------------
                           !   Optimized Parameters   !
                           ! (Angstroms and Degrees)  !
 --------------------------                            --------------------------
 ! Name  Definition              Value          Derivative Info.                !
 --------------------------------------------------------------------------------
 ! R1    R(1,2)                  2.2894         -DE/DX =    0.0001              !
 ! R2    R(2,3)                  0.9978         -DE/DX =    0.0                 !
 ! R3    R(2,4)                  0.9978         -DE/DX =    0.0                 !
 ! A1    A(1,2,3)              128.3464         -DE/DX =    0.0                 !
 ! A2    A(1,2,4)              128.2634         -DE/DX =    0.0                 !
 ! A3    A(3,2,4)              103.3902         -DE/DX =    0.0                 !
 ! A4    L(1,2,3,4,-2)         180.0            -DE/DX =    0.0                 !
 --------------------------------------------------------------------------------
 GradGradGradGradGradGradGradGradGradGradGradGradGradGradGradGradGradGrad

                          Input orientation:                          
 ---------------------------------------------------------------------
 Center     Atomic     Atomic              Coordinates (Angstroms)
 Number     Number      Type              X           Y           Z
 ---------------------------------------------------------------------
    1         57             0       -0.005164    0.236905    0.000000
    2          8             0        0.004676   -2.052452    0.000000
    3          1             0       -0.775197   -2.674854    0.000000
    4          1             0        0.790751   -2.666979    0.000000
 ---------------------------------------------------------------------
                    Distance matrix (angstroms):
                    1          2          3          4
     1  La   0.000000
     2  O    2.289378   0.000000
     3  H    3.011858   0.997791   0.000000
     4  H    3.010984   0.997777   1.565968   0.000000
 Symmetry turned off by external request.
 Stoichiometry    H2LaO(3+)
 Framework group  CS[SG(H2LaO)]
 Deg. of freedom     5
 Full point group                 CS
 Rotational constants (GHZ):    408.9745901      5.6544614      5.5773492

 **********************************************************************

            Population analysis using the SCF density.

 **********************************************************************

 Alpha  occ. eigenvalues --  -19.83740 -11.23321  -8.49592  -8.49467  -8.49246
 Alpha  occ. eigenvalues --   -4.75688  -4.75681  -4.75541  -4.75445  -4.75411
 Alpha  occ. eigenvalues --   -2.24743  -1.69516  -1.58953  -1.58715  -1.57292
 Alpha  occ. eigenvalues --   -1.18422  -1.11401  -1.00311
 Alpha virt. eigenvalues --   -0.79717  -0.79716  -0.79538  -0.79520  -0.79401
 Alpha virt. eigenvalues --   -0.79219  -0.79147  -0.73575  -0.73560  -0.72997
 Alpha virt. eigenvalues --   -0.71630  -0.69724  -0.62845  -0.52640  -0.52568
 Alpha virt. eigenvalues --   -0.51835  -0.44024  -0.41017  -0.35109  -0.32092
 Alpha virt. eigenvalues --   -0.30113  -0.28953  -0.28519  -0.26963  -0.24688
 Alpha virt. eigenvalues --   -0.23950  -0.22833  -0.22630  -0.21664  -0.21609
 Alpha virt. eigenvalues --   -0.15239  -0.15106  -0.14800  -0.13545  -0.12739
 Alpha virt. eigenvalues --   -0.10674  -0.05095  -0.03484  -0.00886  -0.00140
 Alpha virt. eigenvalues --    0.02567   0.05495   0.08400   0.08917   0.12671
 Alpha virt. eigenvalues --    0.12716   0.12844   0.13201   0.15921   0.15950
 Alpha virt. eigenvalues --    0.17901   0.18192   0.19468   0.21191   0.28863
 Alpha virt. eigenvalues --    0.31384   0.33113   0.40293   0.48399   0.51419
 Alpha virt. eigenvalues --    0.64271   0.75136   0.81390   1.00867   1.14297
 Alpha virt. eigenvalues --    1.16544   1.17782   1.18129   1.21864   1.27407
 Alpha virt. eigenvalues --    1.29817   1.30626   1.31628   1.36166   1.43867
 Alpha virt. eigenvalues --    1.44015   1.46896   1.47954   1.47964   1.48446
 Alpha virt. eigenvalues --    1.48825   1.51719   1.52687   1.53141   1.54105
 Alpha virt. eigenvalues --    1.54243   1.55147   1.56052   1.61233   1.69883
 Alpha virt. eigenvalues --    2.04060   2.13433   2.26028   2.66713   2.73030
 Alpha virt. eigenvalues --    2.79001   2.88996   2.89902   2.94261   3.14461
 Alpha virt. eigenvalues --    3.24919   4.74680   4.74737   4.74989   4.75146
 Alpha virt. eigenvalues --    4.76266   4.76584   4.77150   4.78540   4.80088
 Alpha virt. eigenvalues --    5.35660   5.50597   5.50663   5.51952   5.52703
 Alpha virt. eigenvalues --    5.56613   5.59681   5.70352   8.40076   8.40219
 Alpha virt. eigenvalues --    8.45233   8.48570   8.71826  11.83292  11.84018
 Alpha virt. eigenvalues --   11.99589  51.28594  54.84867  54.85416  54.96583
 Alpha virt. eigenvalues --  143.33979 143.34236 143.41176 156.84224 237.65074
 Alpha virt. eigenvalues --  423.67194
          Condensed to atoms (all electrons):
              1          2          3          4
     1  La  26.255952   0.037074   0.000698   0.000736
     2  O    0.037074   7.596561   0.328183   0.328074
     3  H    0.000698   0.328183   0.443043  -0.064167
     4  H    0.000736   0.328074  -0.064167   0.443249
 Mulliken atomic charges:
              1
     1  La   2.705540
     2  O   -0.289891
     3  H    0.292243
     4  H    0.292109
 Sum of Mulliken charges=   3.00000
 Atomic charges with hydrogens summed into heavy atoms:
              1
     1  La   2.705540
     2  O    0.294460
     3  H    0.000000
     4  H    0.000000
 Sum of Mulliken charges=   3.00000
 Electronic spatial extent (au):  <R**2>=   215.2936
 Charge=     3.0000 electrons
 Dipole moment (field-independent basis, Debye):
    X=    -0.0441    Y=    -3.3015    Z=     0.0000  Tot=     3.3018
 Quadrupole moment (field-independent basis, Debye-Ang):
   XX=   -20.4521   YY=    -0.6041   ZZ=   -24.4085
   XY=    -0.0737   XZ=     0.0000   YZ=     0.0000
 Traceless Quadrupole moment (field-independent basis, Debye-Ang):
   XX=    -5.2972   YY=    14.5508   ZZ=    -9.2536
   XY=    -0.0737   XZ=     0.0000   YZ=     0.0000
 Octapole moment (field-independent basis, Debye-Ang**2):
  XXX=     0.2555  YYY=   -45.3596  ZZZ=     0.0000  XYY=     0.1977
  XXY=     0.1393  XXZ=     0.0000  XZZ=     0.0573  YZZ=    10.0988
  YYZ=     0.0000  XYZ=     0.0000
 Hexadecapole moment (field-independent basis, Debye-Ang**3):
 XXXX=   -15.4526 YYYY=    26.9524 ZZZZ=   -17.0815 XXXY=     0.0529
 XXXZ=     0.0000 YYYX=    -0.0365 YYYZ=     0.0000 ZZZX=     0.0000
 ZZZY=     0.0000 XXYY=    -9.9992 XXZZ=    -5.8343 YYZZ=   -36.0493
 XXYZ=     0.0000 YYXZ=     0.0000 ZZXY=     0.0888
 N-N= 7.264105669981D+01 E-N=-1.198259166850D+03  KE= 2.369876145159D+02
 1\1\GINC-COMPUTE-0-10\FOpt\RB3LYP\Gen\H2La1O1(3+)\AUCLARK\29-Apr-2008\
 0\\# b3lyp / gen pseudo=read integral(grid=ultrafine) scf(verytight, m
 axcycle=300) opt FREQ = HPMODES nosymm\\test\\3,1\La,-0.00516443,0.236
 90509,0.\O,0.00467588,-2.05245165,0.\H,-0.77519739,-2.67485376,0.\H,0.
 79075092,-2.66697938,0.\\Version=AM64L-G03RevD.02\HF=-510.8174819\RMSD
 =1.523e-09\RMSF=3.934e-05\Thermal=0.\Dipole=-0.0032865,0.8657274,0.\PG
 =CS [SG(H2La1O1)]\\@


 UNDER MOST GREENE GRASSE LY MOST GREATE SNAKES.
 -- PROVERBS AND REASONS OF THE YEAR 1585
           AS REPRINTED IN PAISLEY MAGAZINE 1828.
 Job cpu time:  0 days  0 hours  4 minutes 23.1 seconds.
 File lengths (MBytes):  RWF=     22 Int=      0 D2E=      0 Chk=      7 Scr=      1
 Normal termination of Gaussian 03 at Tue Apr 29 11:26:35 2008.
 Link1:  Proceeding to internal job step number  2.
 ----------------------------------------------------------------
 #N Geom=AllCheck Guess=Read SCRF=Check GenChk RB3LYP/ChkBas Freq
 ----------------------------------------------------------------
 1/10=4,29=7,30=1,38=1,40=1,46=1/1,3;
 2/15=1,40=1/2;
 3/5=7,6=2,11=2,16=1,17=8,25=1,30=1,67=1,70=2,71=2,74=-5,75=5,82=7/1,2,3;
 4/5=1,7=1/1;
 5/5=2,7=300,17=3,38=6/2;
 8/6=4,10=90,11=11/1;
 11/6=1,8=1,9=11,15=111,16=1,31=1/1,2,10;
 10/6=1,31=1/2;
 6/7=2,8=2,9=2,10=2,18=1,28=1/1;
 7/8=11,10=1,25=1,30=1/1,2,3,16;
 1/10=4,30=1,46=1/3;
 99//99;
 ----
 test
 ----
 Redundant internal coordinates taken from checkpoint file:
 /scratch/auclark/Gau-23046.chk
 Charge =  3 Multiplicity = 1
 La,0,-0.00516443,0.23690509,0.
 O,0,0.00467588,-2.05245165,0.
 H,0,-0.77519739,-2.67485376,0.
 H,0,0.79075092,-2.66697938,0.
 Recover connectivity data from disk.

 GradGradGradGradGradGradGradGradGradGradGradGradGradGradGradGradGradGrad
 Berny optimization.
 Initialization pass.
                           ----------------------------
                           !    Initial Parameters    !
                           ! (Angstroms and Degrees)  !
 --------------------------                            --------------------------
 ! Name  Definition              Value          Derivative Info.                !
 --------------------------------------------------------------------------------
 ! R1    R(1,2)                  2.2894         calculate D2E/DX2 analytically  !
 ! R2    R(2,3)                  0.9978         calculate D2E/DX2 analytically  !
 ! R3    R(2,4)                  0.9978         calculate D2E/DX2 analytically  !
 ! A1    A(1,2,3)              128.3464         calculate D2E/DX2 analytically  !
 ! A2    A(1,2,4)              128.2634         calculate D2E/DX2 analytically  !
 ! A3    A(3,2,4)              103.3902         calculate D2E/DX2 analytically  !
 ! A4    L(1,2,3,4,-2)         180.0            calculate D2E/DX2 analytically  !
 --------------------------------------------------------------------------------
 Trust Radius=3.00D-01 FncErr=1.00D-07 GrdErr=1.00D-07
 Number of steps in this run=   2 maximum allowed number of steps=   2.
 GradGradGradGradGradGradGradGradGradGradGradGradGradGradGradGradGradGrad

                          Input orientation:                          
 ---------------------------------------------------------------------
 Center     Atomic     Atomic              Coordinates (Angstroms)
 Number     Number      Type              X           Y           Z
 ---------------------------------------------------------------------
    1         57             0       -0.005164    0.236905    0.000000
    2          8             0        0.004676   -2.052452    0.000000
    3          1             0       -0.775197   -2.674854    0.000000
    4          1             0        0.790751   -2.666979    0.000000
 ---------------------------------------------------------------------
                    Distance matrix (angstroms):
                    1          2          3          4
     1  La   0.000000
     2  O    2.289378   0.000000
     3  H    3.011858   0.997791   0.000000
     4  H    3.010984   0.997777   1.565968   0.000000
 Symmetry turned off by external request.
 Stoichiometry    H2LaO(3+)
 Framework group  CS[SG(H2LaO)]
 Deg. of freedom     5
 Full point group                 CS
 Rotational constants (GHZ):    408.9745901      5.6544614      5.5773492
 Basis read from chk: /scratch/auclark/Gau-23046.chk (5D, 7F)
 Pseudo-potential data read from chk file.
 Integral buffers will be    131072 words long.
 Raffenetti 2 integral format.
 Two-electron integral symmetry is turned off.
   154 basis functions,   347 primitive gaussians,   191 cartesian basis functions
    18 alpha electrons       18 beta electrons
       nuclear repulsion energy        72.6410566998 Hartrees.
 NAtoms=    4 NActive=    4 NUniq=    4 SFac= 7.50D-01 NAtFMM=   80 NAOKFM=F Big=F
 One-electron integrals computed using PRISM.
   1 Symmetry operations used in ECPInt.
 ECPInt:  NShTT=    1176 NPrTT=    3935 LenC2=    1171 LenP2D=    3412.
 LDataN:  DoStor=F MaxTD1= 9 Len=  602
 LDataN:  DoStor=T MaxTD1= 9 Len=  602
 NBasis=   154 RedAO= T  NBF=   154
 NBsUse=   154 1.00D-06 NBFU=   154
 Defaulting to unpruned grid for atomic number  57.
 Initial guess read from the checkpoint file:
 /scratch/auclark/Gau-23046.chk
 Requested convergence on RMS density matrix=1.00D-08 within 300 cycles.
 Requested convergence on MAX density matrix=1.00D-06.
 Requested convergence on             energy=1.00D-06.
 No special actions if energy rises.
 Keep R1 integrals in memory in canonical form, NReq=   176490850.
 Defaulting to unpruned grid for atomic number  57.
 Defaulting to unpruned grid for atomic number  57.
 Defaulting to unpruned grid for atomic number  57.
 Defaulting to unpruned grid for atomic number  57.
 SCF Done:  E(RB+HF-LYP) =  -510.817481855     A.U. after    1 cycles
             Convg  =    0.1616D-09             -V/T =  3.1555
             S**2   =   0.0000
 Range of M.O.s used for correlation:     1   154
 NBasis=   154 NAE=    18 NBE=    18 NFC=     0 NFV=     0
 NROrb=    154 NOA=    18 NOB=    18 NVA=   136 NVB=   136

 **** Warning!!: The largest alpha MO coefficient is  0.13561608D+02

   1 Symmetry operations used in ECPInt.
 ECPInt:  NShTT=    1176 NPrTT=    3935 LenC2=    1171 LenP2D=    3412.
 LDataN:  DoStor=F MaxTD1=10 Len=  848
 LDataN:  DoStor=T MaxTD1=10 Len=  848
 Symmetrizing basis deriv contribution to polar:
 IMax=3 JMax=2 DiffMx= 0.00D+00
 G2DrvN: will do    5 centers at a time, making    1 passes doing MaxLOS=4.
 Defaulting to unpruned grid for atomic number  57.
 Defaulting to unpruned grid for atomic number  57.
 Defaulting to unpruned grid for atomic number  57.
 Defaulting to unpruned grid for atomic number  57.
 FoFDir/FoFCou used for L=0 through L=4.
 DoAtom=TTTT
          Differentiating once with respect to electric field.
                with respect to dipole field.
          Differentiating once with respect to nuclear coordinates.
 Defaulting to unpruned grid for atomic number  57.
          Store integrals in memory, NReq=   172624644.
 Defaulting to unpruned grid for atomic number  57.
 Defaulting to unpruned grid for atomic number  57.
 Defaulting to unpruned grid for atomic number  57.
 Defaulting to unpruned grid for atomic number  57.
          There are  15 degrees of freedom in the 1st order CPHF.
    12 vectors were produced by pass  0.
 AX will form  12 AO Fock derivatives at one time.
    12 vectors were produced by pass  1.
    12 vectors were produced by pass  2.
    12 vectors were produced by pass  3.
    12 vectors were produced by pass  4.
    11 vectors were produced by pass  5.
     9 vectors were produced by pass  6.
     5 vectors were produced by pass  7.
     2 vectors were produced by pass  8.
 Inv2:  IOpt= 1 Iter= 1 AM= 1.12D-15 Conv= 1.00D-12.
 Inverted reduced A of dimension   87 with in-core refinement.
 Isotropic polarizability for W=    0.000000       18.97 Bohr**3.
 End of Minotr Frequency-dependent properties file   721 does not exist.

 **********************************************************************

            Population analysis using the SCF density.

 **********************************************************************

 Alpha  occ. eigenvalues --  -19.83740 -11.23321  -8.49592  -8.49467  -8.49246
 Alpha  occ. eigenvalues --   -4.75688  -4.75681  -4.75541  -4.75445  -4.75411
 Alpha  occ. eigenvalues --   -2.24743  -1.69516  -1.58953  -1.58715  -1.57292
 Alpha  occ. eigenvalues --   -1.18422  -1.11401  -1.00311
 Alpha virt. eigenvalues --   -0.79717  -0.79716  -0.79538  -0.79520  -0.79401
 Alpha virt. eigenvalues --   -0.79219  -0.79147  -0.73575  -0.73560  -0.72997
 Alpha virt. eigenvalues --   -0.71630  -0.69724  -0.62845  -0.52640  -0.52568
 Alpha virt. eigenvalues --   -0.51835  -0.44024  -0.41017  -0.35109  -0.32092
 Alpha virt. eigenvalues --   -0.30113  -0.28953  -0.28519  -0.26963  -0.24688
 Alpha virt. eigenvalues --   -0.23950  -0.22833  -0.22630  -0.21664  -0.21609
 Alpha virt. eigenvalues --   -0.15239  -0.15106  -0.14800  -0.13545  -0.12739
 Alpha virt. eigenvalues --   -0.10674  -0.05095  -0.03484  -0.00886  -0.00140
 Alpha virt. eigenvalues --    0.02567   0.05495   0.08400   0.08917   0.12671
 Alpha virt. eigenvalues --    0.12716   0.12844   0.13201   0.15921   0.15950
 Alpha virt. eigenvalues --    0.17901   0.18192   0.19468   0.21191   0.28863
 Alpha virt. eigenvalues --    0.31384   0.33113   0.40293   0.48399   0.51419
 Alpha virt. eigenvalues --    0.64271   0.75136   0.81390   1.00867   1.14297
 Alpha virt. eigenvalues --    1.16544   1.17782   1.18129   1.21864   1.27407
 Alpha virt. eigenvalues --    1.29817   1.30626   1.31628   1.36166   1.43867
 Alpha virt. eigenvalues --    1.44015   1.46896   1.47954   1.47964   1.48446
 Alpha virt. eigenvalues --    1.48825   1.51719   1.52687   1.53141   1.54105
 Alpha virt. eigenvalues --    1.54243   1.55147   1.56052   1.61233   1.69883
 Alpha virt. eigenvalues --    2.04060   2.13433   2.26028   2.66713   2.73030
 Alpha virt. eigenvalues --    2.79001   2.88996   2.89902   2.94261   3.14461
 Alpha virt. eigenvalues --    3.24919   4.74680   4.74737   4.74989   4.75146
 Alpha virt. eigenvalues --    4.76266   4.76584   4.77150   4.78540   4.80088
 Alpha virt. eigenvalues --    5.35660   5.50597   5.50663   5.51952   5.52703
 Alpha virt. eigenvalues --    5.56613   5.59681   5.70352   8.40076   8.40219
 Alpha virt. eigenvalues --    8.45233   8.48570   8.71826  11.83292  11.84018
 Alpha virt. eigenvalues --   11.99589  51.28594  54.84867  54.85416  54.96583
 Alpha virt. eigenvalues --  143.33979 143.34236 143.41176 156.84224 237.65074
 Alpha virt. eigenvalues --  423.67194
          Condensed to atoms (all electrons):
              1          2          3          4
     1  La  26.255952   0.037074   0.000698   0.000736
     2  O    0.037074   7.596561   0.328183   0.328074
     3  H    0.000698   0.328183   0.443043  -0.064167
     4  H    0.000736   0.328074  -0.064167   0.443249
 Mulliken atomic charges:
              1
     1  La   2.705540
     2  O   -0.289891
     3  H    0.292243
     4  H    0.292109
 Sum of Mulliken charges=   3.00000
 Atomic charges with hydrogens summed into heavy atoms:
              1
     1  La   2.705540
     2  O    0.294460
     3  H    0.000000
     4  H    0.000000
 Sum of Mulliken charges=   3.00000
 APT atomic charges:
              1
     1  La   2.845263
     2  O   -0.804179
     3  H    0.479595
     4  H    0.479321
 Sum of APT charges=   3.00000
 APT Atomic charges with hydrogens summed into heavy atoms:
              1
     1  La   2.845263
     2  O    0.154737
     3  H    0.000000
     4  H    0.000000
 Sum of APT charges=   3.00000
 Electronic spatial extent (au):  <R**2>=   215.2936
 Charge=     3.0000 electrons
 Dipole moment (field-independent basis, Debye):
    X=    -0.0441    Y=    -3.3015    Z=     0.0000  Tot=     3.3018
 Quadrupole moment (field-independent basis, Debye-Ang):
   XX=   -20.4521   YY=    -0.6041   ZZ=   -24.4085
   XY=    -0.0737   XZ=     0.0000   YZ=     0.0000
 Traceless Quadrupole moment (field-independent basis, Debye-Ang):
   XX=    -5.2972   YY=    14.5508   ZZ=    -9.2536
   XY=    -0.0737   XZ=     0.0000   YZ=     0.0000
 Octapole moment (field-independent basis, Debye-Ang**2):
  XXX=     0.2555  YYY=   -45.3596  ZZZ=     0.0000  XYY=     0.1977
  XXY=     0.1393  XXZ=     0.0000  XZZ=     0.0573  YZZ=    10.0988
  YYZ=     0.0000  XYZ=     0.0000
 Hexadecapole moment (field-independent basis, Debye-Ang**3):
 XXXX=   -15.4526 YYYY=    26.9524 ZZZZ=   -17.0815 XXXY=     0.0529
 XXXZ=     0.0000 YYYX=    -0.0365 YYYZ=     0.0000 ZZZX=     0.0000
 ZZZY=     0.0000 XXYY=    -9.9992 XXZZ=    -5.8343 YYZZ=   -36.0493
 XXYZ=     0.0000 YYXZ=     0.0000 ZZXY=     0.0888
 N-N= 7.264105669981D+01 E-N=-1.198259167114D+03  KE= 2.369876146278D+02
  Exact polarizability:  14.942  -0.057  28.133   0.000   0.000  13.839
 Approx polarizability:  22.657  -0.071  39.381   0.000   0.000  20.394
   1 Symmetry operations used in ECPInt.
 ECPInt:  NShTT=    1176 NPrTT=    3935 LenC2=    1177 LenP2D=    3847.
 LDataN:  DoStor=F MaxTD1=11 Len= 1166
 LDataN:  DoStor=T MaxTD1=11 Len= 1166
 Defaulting to unpruned grid for atomic number  57.
 Defaulting to unpruned grid for atomic number  57.
 Defaulting to unpruned grid for atomic number  57.
 Defaulting to unpruned grid for atomic number  57.
 Full mass-weighted force constant matrix:
 Low frequencies ---   -0.0008   -0.0006   -0.0003    8.0533    8.3695   15.4639
 Low frequencies ---  433.4864  662.8175  679.6806
 Diagonal vibrational polarizability:
        5.3627830       7.6370670      19.9894201
 Harmonic frequencies (cm**-1), IR intensities (KM/Mole), Raman scattering
 activities (A**4/AMU), depolarization ratios for plane and unpolarized
 incident light, reduced masses (AMU), force constants (mDyne/A),
 and normal coordinates:
                           1         2         3         4         5
                          A'        A'        A"        A'        A'
       Frequencies ---   433.4864  662.8175  679.6805 1642.7295 3381.9312
    Reduced masses ---     7.0017    1.1206    1.1984    1.0778    1.0438
   Force constants ---     0.7752    0.2901    0.3262    1.7136    7.0340
    IR Intensities ---    32.7026   70.4666  343.1442  135.0264  683.0374
 Coord Atom Element:
   1     1    57         -0.00033  -0.00443   0.00000   0.00000   0.00000
   2     1    57          0.07606  -0.00002   0.00000   0.00015  -0.00029
   3     1    57          0.00000   0.00000  -0.00275   0.00000   0.00000
   1     2     8          0.00257   0.08571   0.00000  -0.00033   0.00009
   2     2     8         -0.58881   0.00042   0.00000   0.06831  -0.04899
   3     2     8          0.00000   0.00000   0.11246   0.00000   0.00000
   1     3     1          0.01126  -0.37794   0.00000   0.44106   0.57510
   2     3     1         -0.56872   0.59471   0.00000  -0.55040   0.41254
   3     3     1          0.00000   0.00000  -0.70302   0.00000   0.00000
   1     4     1         -0.00658  -0.37181   0.00000  -0.43566  -0.57680
   2     4     1         -0.56911  -0.59823   0.00000  -0.55503   0.40495
   3     4     1          0.00000   0.00000  -0.70222   0.00000   0.00000
                           6
                          A'
       Frequencies ---  3416.3807
    Reduced masses ---     1.0828
   Force constants ---     7.4461
    IR Intensities ---   453.7845
 Coord Atom Element:
   1     1    57          0.00005
   2     1    57          0.00000
   3     1    57          0.00000
   1     2     8         -0.07073
   2     2     8         -0.00025
   3     2     8          0.00000
   1     3     1          0.55459
   2     3     1          0.43327
   3     3     1          0.00000
   1     4     1          0.56147
   2     4     1         -0.42948
   3     4     1          0.00000
 Harmonic frequencies (cm**-1), IR intensities (KM/Mole), Raman scattering
 activities (A**4/AMU), depolarization ratios for plane and unpolarized
 incident light, reduced masses (AMU), force constants (mDyne/A),
 and normal coordinates:
                     1                      2                      3
                    A'                     A'                     A"
 Frequencies --   433.4864               662.8175               679.6805
 Red. masses --     7.0017                 1.1206                 1.1984
 Frc consts  --     0.7752                 0.2901                 0.3262
 IR Inten    --    32.7026                70.4666               343.1442
 Atom AN      X      Y      Z        X      Y      Z        X      Y      Z
   1  57     0.00   0.08   0.00     0.00   0.00   0.00     0.00   0.00   0.00
   2   8     0.00  -0.59   0.00     0.09   0.00   0.00     0.00   0.00   0.11
   3   1     0.01  -0.57   0.00    -0.38   0.59   0.00     0.00   0.00  -0.70
   4   1    -0.01  -0.57   0.00    -0.37  -0.60   0.00     0.00   0.00  -0.70
                     4                      5                      6
                    A'                     A'                     A'
 Frequencies --  1642.7295              3381.9312              3416.3807
 Red. masses --     1.0778                 1.0438                 1.0828
 Frc consts  --     1.7136                 7.0340                 7.4461
 IR Inten    --   135.0264               683.0374               453.7845
 Atom AN      X      Y      Z        X      Y      Z        X      Y      Z
   1  57     0.00   0.00   0.00     0.00   0.00   0.00     0.00   0.00   0.00
   2   8     0.00   0.07   0.00     0.00  -0.05   0.00    -0.07   0.00   0.00
   3   1     0.44  -0.55   0.00     0.58   0.41   0.00     0.55   0.43   0.00
   4   1    -0.44  -0.56   0.00    -0.58   0.40   0.00     0.56  -0.43   0.00

 -------------------
 - Thermochemistry -
 -------------------
 Temperature   298.150 Kelvin.  Pressure   1.00000 Atm.
 Atom  1 has atomic number 57 and mass 138.90610
 Atom  2 has atomic number  8 and mass  15.99491
 Atom  3 has atomic number  1 and mass   1.00783
 Atom  4 has atomic number  1 and mass   1.00783
 Molecular mass:   156.91666 amu.
 Principal axes and moments of inertia in atomic units:
                           1         2         3
     EIGENVALUES --     4.41284 319.17120 323.58404
           X           -0.00431   0.99999   0.00000
           Y            0.99999   0.00431   0.00000
           Z            0.00000   0.00000   1.00000
 This molecule is an asymmetric top.
 Rotational symmetry number  1.
 Rotational temperatures (Kelvin)     19.62766     0.27137     0.26767
 Rotational constants (GHZ):         408.97459     5.65446     5.57735
 Zero-point vibrational energy      61111.4 (Joules/Mol)
                                   14.60597 (Kcal/Mol)
 Warning -- explicit consideration of   1 degrees of freedom as
           vibrations may cause significant error
 Vibrational temperatures:    623.69   953.65   977.91  2363.52  4865.84
          (Kelvin)           4915.40
 
 Zero-point correction=                           0.023276 (Hartree/Particle)
 Thermal correction to Energy=                    0.026639
 Thermal correction to Enthalpy=                  0.027583
 Thermal correction to Gibbs Free Energy=        -0.002516
 Sum of electronic and zero-point Energies=           -510.794206
 Sum of electronic and thermal Energies=              -510.790843
 Sum of electronic and thermal Enthalpies=            -510.789899
 Sum of electronic and thermal Free Energies=         -510.819997
 
                     E (Thermal)             CV                S
                      KCal/Mol        Cal/Mol-Kelvin    Cal/Mol-Kelvin
 Total                   16.716              9.175             63.348
 Electronic               0.000              0.000              0.000
 Translational            0.889              2.981             41.061
 Rotational               0.889              2.981             20.749
 Vibrational             14.939              3.213              1.538
 Vibration  1             0.794              1.397              0.847
                       Q            Log10(Q)             Ln(Q)
 Total Bot       0.143573D+02          1.157073          2.664260
 Total V=0       0.729982D+12         11.863312         27.316286
 Vib (Bot)       0.243166D-10        -10.614097        -24.439860
 Vib (Bot)  1    0.400852D+00         -0.397016         -0.914163
 Vib (V=0)       0.123635D+01          0.092143          0.212166
 Vib (V=0)  1    0.114084D+01          0.057227          0.131769
 Electronic      0.100000D+01          0.000000          0.000000
 Translational   0.772607D+08          7.887959         18.162696
 Rotational      0.764207D+04          3.883211          8.941424
 -------------------------------------------------------------------
 Center     Atomic                   Forces (Hartrees/Bohr)
 Number     Number              X              Y              Z
 -------------------------------------------------------------------
    1         57          -0.000016831    0.000074351    0.000000000
    2          8           0.000038934   -0.000095784    0.000000000
    3          1           0.000011388    0.000027778    0.000000000
    4          1          -0.000033492   -0.000006345    0.000000000
 -------------------------------------------------------------------
 Cartesian Forces:  Max     0.000095784 RMS     0.000039333

 GradGradGradGradGradGradGradGradGradGradGradGradGradGradGradGradGradGrad
 Berny optimization.
 Internal  Forces:  Max     0.000074423 RMS     0.000036977
 Search for a local minimum.
 Step number   1 out of a maximum of   2
 All quantities printed in internal units (Hartrees-Bohrs-Radians)
 Second derivative matrix not updated -- analytic derivatives used.
 The second derivative matrix:
                          R1        R2        R3        A1        A2
           R1           0.11408
           R2           0.01559   0.41583
           R3           0.01560   0.00346   0.41587
           A1           0.00362  -0.00930  -0.00417   0.04558
           A2           0.00357  -0.00416  -0.00930  -0.00716   0.04562
           A3          -0.00720   0.01345   0.01346  -0.03842  -0.03846
           A4           0.00000   0.00000   0.00000   0.00000   0.00000
                          A3        A4
           A3           0.07688
           A4           0.00000   0.02465
     Eigenvalues ---    0.02465   0.05269   0.10262   0.12352   0.41246
     Eigenvalues ---    0.422561000.00000
 Angle between quadratic step and forces=  25.61 degrees.
 Linear search not attempted -- first point.
 Iteration  1 RMS(Cart)=  0.00051168 RMS(Int)=  0.00000012
 Iteration  2 RMS(Cart)=  0.00000012 RMS(Int)=  0.00000000
 Variable       Old X    -DE/DX   Delta X   Delta X   Delta X     New X
                                 (Linear)    (Quad)   (Total)
    R1        4.32630   0.00007   0.00000   0.00068   0.00068   4.32697
    R2        1.88555  -0.00003   0.00000  -0.00010  -0.00010   1.88545
    R3        1.88552  -0.00002   0.00000  -0.00007  -0.00007   1.88545
    A1        2.24007  -0.00003   0.00000  -0.00071  -0.00071   2.23936
    A2        2.23862   0.00004   0.00000   0.00071   0.00071   2.23932
    A3        1.80450  -0.00001   0.00000   0.00000   0.00000   1.80450
    A4        3.14159   0.00000   0.00000   0.00000   0.00000   3.14159
         Item               Value     Threshold  Converged?
 Maximum Force            0.000074     0.000450     YES
 RMS     Force            0.000037     0.000300     YES
 Maximum Displacement     0.000849     0.001800     YES
 RMS     Displacement     0.000512     0.001200     YES
 Predicted change in Energy=-5.346536D-08
 Optimization completed.
    -- Stationary point found.
                           ----------------------------
                           !   Optimized Parameters   !
                           ! (Angstroms and Degrees)  !
 --------------------------                            --------------------------
 ! Name  Definition              Value          Derivative Info.                !
 --------------------------------------------------------------------------------
 ! R1    R(1,2)                  2.2894         -DE/DX =    0.0001              !
 ! R2    R(2,3)                  0.9978         -DE/DX =    0.0                 !
 ! R3    R(2,4)                  0.9978         -DE/DX =    0.0                 !
 ! A1    A(1,2,3)              128.3464         -DE/DX =    0.0                 !
 ! A2    A(1,2,4)              128.2634         -DE/DX =    0.0                 !
 ! A3    A(3,2,4)              103.3902         -DE/DX =    0.0                 !
 ! A4    L(1,2,3,4,-2)         180.0            -DE/DX =    0.0                 !
 --------------------------------------------------------------------------------
 GradGradGradGradGradGradGradGradGradGradGradGradGradGradGradGradGradGrad

 1\1\GINC-COMPUTE-0-10\Freq\RB3LYP\Gen\H2La1O1(3+)\AUCLARK\29-Apr-2008\
 0\\#N Geom=AllCheck Guess=Read SCRF=Check GenChk RB3LYP/ChkBas Freq\\t
 est\\3,1\La,-0.00516443,0.23690509,0.\O,0.00467588,-2.05245165,0.\H,-0
 .77519739,-2.67485376,0.\H,0.79075092,-2.66697938,0.\\Version=AM64L-G0
 3RevD.02\HF=-510.8174819\RMSD=1.616e-10\RMSF=3.933e-05\ZeroPoint=0.023
 2761\Thermal=0.0266392\Dipole=-0.0032866,0.8657274,0.\DipoleDeriv=2.57
 30507,-0.0033057,0.,-0.0033066,3.3462564,0.,0.,0.,2.616482,-0.575346,0
 .0032681,0.,0.0033169,-1.3798004,0.,0.,0.,-0.4573905,0.499222,0.317821
 ,0.,0.127265,0.5190624,0.,0.,0.,0.4205016,0.5030733,-0.3177834,0.,-0.1
 272752,0.5144816,0.,0.,0.,0.4204069\Polar=14.9416311,-0.0567817,28.132
 8062,0.,0.,13.8387392\PG=CS [SG(H2La1O1)]\NImag=0\\0.00567696,-0.00043
 067,0.11407555,0.,0.,0.00218421,-0.01555074,0.00024581,0.,0.54998511,0
 .00024693,-0.08575730,0.,0.00056592,0.45785594,0.,0.,-0.01008588,0.,0.
 ,0.04724631,0.00499285,-0.00859683,0.,-0.26553320,-0.14336799,0.,0.287
 61140,-0.00424393,-0.01421796,0.,-0.18880581,-0.18769646,0.,0.17272630
 ,0.18427890,0.,0.,0.00394718,0.,0.,-0.01857762,0.,0.,0.00732017,0.0048
 8093,0.00878168,0.,-0.26890117,0.14255514,0.,-0.02707105,0.02032344,0.
 ,0.29109129,0.00442767,-0.01410029,0.,0.18799408,-0.18440217,0.,-0.020
 76149,0.01763552,0.,-0.17166026,0.18086695,0.,0.,0.00395449,0.,0.,-0.0
 1858281,0.,0.,0.00731028,0.,0.,0.00731803\\0.00001683,-0.00007435,0.,-
 0.00003893,0.00009578,0.,-0.00001139,-0.00002778,0.,0.00003349,0.00000
 635,0.\\\@


 "A LITTLE BIT GOES A LONG WAY"
 R.S. MULLIKEN AS QUOTED BY K. RUEDENBERG
 Job cpu time:  0 days  0 hours  5 minutes 30.8 seconds.
 File lengths (MBytes):  RWF=     22 Int=      0 D2E=      0 Chk=      7 Scr=      1
 Normal termination of Gaussian 03 at Tue Apr 29 11:41:06 2008.
