    28
 1 LA -0.000207437 -0.0477794 5.92679e-05 284
 2 O 1.88845 0.852986 -1.56528 22 10 11
 3 O 0.000864146 -1.36548 -2.27336 22 20 21
 4 O -1.88482 0.856098 -1.56778 22 24 25
 5 O -1.88809 -1.85376 0.000684226 22 18 19
 6 O -1.88845 0.858581 1.56213 22 12 13
 7 O 1.88696 0.85722 1.56493 22 14 15
 8 O 0.00192991 3.28034 -0.00295122 22 22 23
 9 O 1.88662 -1.85628 0.00377833 22 16 17
 10 H 1.94536 0.729359 -2.52617 23 2
 11 H 2.69313 1.33862 -1.32385 23 2
 12 H -2.69199 1.34551 1.31957 23 6
 13 H -1.94638 0.735844 2.52307 23 6
 14 H 1.94378 1.7516 1.93731 23 7
 15 H 2.69078 0.405088 1.86675 23 7
 16 H 1.943 -2.62659 0.591369 23 9
 17 H 2.69143 -1.89049 -0.537266 23 9
 18 H -2.69299 -1.88638 0.541684 23 5
 19 H -1.94477 -2.6252 -0.585382 23 5
 20 H 0.537842 -2.13977 -2.50468 23 3
 21 H -0.534405 -1.18232 -3.0616 23 3
 22 H -0.534925 3.87047 0.54924 23 8
 23 H 0.53949 3.86875 -0.556296 23 8
 24 H -1.94068 1.74946 -1.94277 23 4
 25 H -2.6887 0.403706 -1.869 23 4
 26 O -0.00259509 -1.3574 2.2776 22 27 28
 27 H -0.538924 -2.13117 2.51215 23 26
 28 H 0.533781 -1.17153 3.06444 23 26
