    28
 1 LA 0.000203204 -0.0681877 -5.76803e-05 284
 2 O -1.88823 0.833533 1.56501 22 10 11
 3 O -0.00121023 -1.38521 2.27376 22 20 21
 4 O 1.88505 0.835672 1.56751 22 24 25
 5 O 1.88762 -1.87465 -0.000140761 22 18 19
 6 O 1.88869 0.837217 -1.5624 22 12 13
 7 O -1.88673 0.836831 -1.5652 22 14 15
 8 O -0.00119012 3.55994 0.00213999 22 22 23
 9 O -1.88709 -1.8762 -0.00323698 22 16 17
 10 H -1.94516 0.710209 2.52594 23 2
 11 H -2.69278 1.3193 1.32344 23 2
 12 H 2.69235 1.32402 -1.31998 23 6
 13 H 1.94657 0.714179 -2.5233 23 6
 14 H -1.94332 1.73111 -1.93785 23 7
 15 H -2.69067 0.384817 -1.86689 23 7
 16 H -1.94367 -2.64667 -0.590598 23 9
 17 H -2.69191 -1.91004 0.537817 23 9
 18 H 2.69251 -1.90765 -0.54113 23 5
 19 H 1.9441 -2.64593 0.586155 23 5
 20 H -0.538389 -2.15929 2.5053 23 3
 21 H 0.534107 -1.20195 3.06194 23 3
 22 H 0.535817 4.14976 -0.550227 23 8
 23 H -0.538599 4.14865 0.555309 23 8
 24 H 1.94114 1.72913 1.94223 23 4
 25 H 2.68881 0.383162 1.86887 23 4
 26 O 0.00225324 -1.37849 -2.27721 22 27 28
 27 H 0.538382 -2.15247 -2.51152 23 26
 28 H -0.534074 -1.19271 -3.0641 23 26
