    28
 1 LA -0.000215375 -0.0341737 6.08554e-05 284
 2 O 1.88889 0.865032 -1.56564 22 10 11
 3 O 0.000204262 -1.35279 -2.27283 22 20 21
 4 O -1.88438 0.870003 -1.56814 22 24 25
 5 O -1.88898 -1.83922 0.00141132 22 18 19
 6 O -1.88801 0.873743 1.56177 22 12 13
 7 O 1.8874 0.870522 1.56457 22 14 15
 8 O 0.00333487 3.09395 -0.00402333 22 22 23
 9 O 1.88572 -1.8436 0.00450383 22 16 17
 10 H 1.94573 0.740993 -2.52648 23 2
 11 H 2.6938 1.35036 -1.32441 23 2
 12 H -2.69131 1.36098 1.31901 23 6
 13 H -1.94599 0.751421 2.52276 23 6
 14 H 1.94466 1.76502 1.93659 23 7
 15 H 2.691 0.418116 1.86657 23 7
 16 H 1.94172 -2.6137 0.592404 23 9
 17 H 2.69051 -1.87843 -0.536528 23 9
 18 H -2.6939 -1.87123 0.542425 23 5
 19 H -1.94605 -2.61087 -0.584345 23 5
 20 H 0.536801 -2.12743 -2.50384 23 3
 21 H -0.534976 -1.16968 -3.06114 23 3
 22 H -0.533228 3.68456 0.547931 23 8
 23 H 0.541185 3.68187 -0.557605 23 8
 24 H -1.9398 1.76324 -1.94348 23 4
 25 H -2.68849 0.417886 -1.86917 23 4
 26 O -0.00324597 -1.34288 2.27813 22 27 28
 27 H -0.539955 -2.11629 2.51298 23 26
 28 H 0.533222 -1.15696 3.06489 23 26
