    28
 1 LA -0.000209025 -0.0443779 5.9797e-05 284
 2 O 1.88852 0.856117 -1.56535 22 10 11
 3 O 0.000758311 -1.36226 -2.27326 22 20 21
 4 O -1.88475 0.859528 -1.56785 22 24 25
 5 O -1.88823 -1.85021 0.000823929 22 18 19
 6 O -1.88838 0.862251 1.56206 22 12 13
 7 O 1.88703 0.860592 1.56486 22 14 15
 8 O 0.00215587 3.23374 -0.00315813 22 22 23
 9 O 1.88648 -1.85303 0.0039175 22 16 17
 10 H 1.94542 0.732412 -2.52623 23 2
 11 H 2.69324 1.3417 -1.32396 23 2
 12 H -2.69188 1.34923 1.31946 23 6
 13 H -1.94631 0.739594 2.52301 23 6
 14 H 1.94392 1.755 1.93718 23 7
 15 H 2.69082 0.40842 1.86672 23 7
 16 H 1.9428 -2.62329 0.591568 23 9
 17 H 2.69128 -1.88734 -0.537124 23 9
 18 H -2.69313 -1.88272 0.541826 23 5
 19 H -1.94498 -2.62169 -0.585183 23 5
 20 H 0.537675 -2.1366 -2.50451 23 3
 21 H -0.534497 -1.17911 -3.06151 23 3
 22 H -0.534652 3.82396 0.548988 23 8
 23 H 0.539763 3.82207 -0.556548 23 8
 24 H -1.94054 1.75287 -1.9429 23 4
 25 H -2.68866 0.407176 -1.86903 23 4
 26 O -0.00269933 -1.35383 2.2777 22 27 28
 27 H -0.539089 -2.12753 2.51231 23 26
 28 H 0.533691 -1.16793 3.06453 23 26
