    28
 1 LA 0.0137665 3.49257e-05 -6.29721e-05 284
 2 O -0.903665 -1.8787 1.56754 22 10 11
 3 O 1.33708 -0.0154964 2.27004 22 20 21
 4 O -0.865511 1.89438 1.57003 22 24 25
 5 O 1.84027 1.86805 -0.00523039 22 18 19
 6 O -0.875808 1.89812 -1.55987 22 12 13
 7 O -0.915739 -1.87709 -1.56265 22 14 15
 8 O -2.81419 0.0291439 0.00959345 22 22 23
 9 O 1.80151 -1.90646 -0.00831179 22 16 17
 10 H -0.778257 -1.93697 2.52812 23 2
 11 H -1.39867 -2.67801 1.32734 23 2
 12 H -1.35332 2.70692 -1.31609 23 6
 13 H -0.754858 1.95471 -2.52111 23 6
 14 H -1.81162 -1.92412 -1.93279 23 7
 15 H -0.473183 -2.6858 -1.8656 23 7
 16 H 2.56968 -1.97124 -0.597834 23 9
 17 H 1.82828 -2.7116 0.532649 23 9
 18 H 1.88034 2.67256 -0.546314 23 5
 19 H 2.61375 1.91629 0.578897 23 5
 20 H 2.10602 -0.560914 2.49942 23 3
 21 H 1.16176 0.521727 3.05873 23 3
 22 H -3.3998 0.572432 -0.541118 23 8
 23 H -3.40706 -0.501963 0.564416 23 8
 24 H -1.75727 1.96 1.94726 23 4
 25 H -0.4036 2.69326 1.87011 23 4
 26 O 1.31762 -0.0118472 -2.28088 22 27 28
 27 H 2.09661 0.515993 -2.51738 23 26
 28 H 1.12391 -0.546141 -3.06725 23 26
