    28
 1 LA 0.000203733 -0.0647861 -5.76803e-05 284
 2 O -1.88825 0.836825 1.56504 22 10 11
 3 O -0.00117266 -1.38189 2.27371 22 20 21
 4 O 1.88502 0.839069 1.56755 22 24 25
 5 O 1.88767 -1.8712 -0.000207437 22 18 19
 6 O 1.88866 0.840729 -1.56237 22 12 13
 7 O -1.88676 0.840237 -1.56517 22 14 15
 8 O -0.00127055 3.51334 0.00224001 22 22 23
 9 O -1.88704 -1.87286 -0.00330312 22 16 17
 10 H -1.94518 0.713463 2.52596 23 2
 11 H -2.69281 1.32258 1.32349 23 2
 12 H 2.69231 1.32754 -1.31993 23 6
 13 H 1.94655 0.717727 -2.52327 23 6
 14 H -1.94337 1.73453 -1.93779 23 7
 15 H -2.69068 0.388211 -1.86687 23 7
 16 H -1.9436 -2.6433 -0.590693 23 9
 17 H -2.69186 -1.90674 0.537749 23 9
 18 H 2.69256 -1.90415 -0.541198 23 5
 19 H 1.94418 -2.6425 0.586061 23 5
 20 H -0.538329 -2.15599 2.50523 23 3
 21 H 0.534139 -1.19865 3.0619 23 3
 22 H 0.53572 4.1032 -0.550106 23 8
 23 H -0.538696 4.10202 0.55543 23 8
 24 H 1.94109 1.73252 1.9423 23 4
 25 H 2.6888 0.38657 1.86888 23 4
 26 O 0.00229028 -1.37501 -2.27725 22 27 28
 27 H 0.538441 -2.14896 -2.5116 23 26
 28 H -0.534043 -1.18922 -3.06415 23 26
